<svg xmlns="http://www.w3.org/2000/svg" width="836.161" height="82.073" viewBox="0 0 836.161 82.073">
  <g id="動画を撮る_" data-name="動画を撮る " transform="translate(575.088 -180.199)">
    <g id="グループ_1772" data-name="グループ 1772" transform="translate(-575.088 180.199)">
      <g id="グループ_1771" data-name="グループ 1771">
        <path id="パス_8082" data-name="パス 8082" d="M-573.614,180.332h9.141c4.119,0,7.568,2.076,7.568,7.164v2.143c0,5.09-3.448,7.166-7.568,7.166h-3.817v10.413h-5.325Zm5.325,4.587v7.3h2.812c2.077,0,3.314-.972,3.314-3.249v-.937c0-2.31-1.237-3.114-3.314-3.114Z" transform="translate(575.857 -180.13)" fill="#fff"/>
        <path id="パス_8083" data-name="パス 8083" d="M-545.639,191.43v6.932c0,4.252-3.313,6.8-7.9,6.8-4.622,0-7.77-2.578-7.77-6.8V191.43c0-4.22,3.383-6.764,7.971-6.764S-545.639,187.244-545.639,191.43Zm-10.514.837v5.357c0,1.943.973,2.881,2.68,2.881s2.712-1,2.712-2.881v-5.357c0-1.942-.973-2.913-2.645-2.913C-555.148,189.355-556.153,190.359-556.153,192.267Z" transform="translate(582.277 -177.868)" fill="#fff"/>
        <path id="パス_8084" data-name="パス 8084" d="M-534.566,199c0,3.55-2.377,6.162-7.534,6.162-5.691,0-7.4-3.314-7.633-6.6h4.988a2.208,2.208,0,0,0,2.511,2.243c1.742,0,2.646-.469,2.646-1.607,0-2.913-9.745-1.272-9.745-8.6,0-3.249,2.345-5.927,7.2-5.927,4.955,0,7.164,2.611,7.3,6.731h-4.956c-.1-1.341-.569-2.345-2.41-2.345-1.542,0-2.143.671-2.143,1.508C-544.341,193.606-534.566,192.334-534.566,199Z" transform="translate(588.317 -177.868)" fill="#fff"/>
        <path id="パス_8085" data-name="パス 8085" d="M-526.474,206.576h-2.578c-5.055,0-6.9-1.707-6.9-6.865V191.24h-2.78v-4.687h2.78v-4.99h5.122v4.99h4.32v4.687h-4.32v7.969c0,2.109.6,2.645,2.511,2.645h1.841Z" transform="translate(594.059 -179.487)" fill="#fff"/>
        <path id="パス_8086" data-name="パス 8086" d="M-519.36,210.826h-1.473v-4.588h.971c1.44,0,2.044-.266,2.479-1.808l-5.66-19.588h5.157l3.013,11.183,3.013-11.183h5.057l-5.894,20.325C-514.036,209.755-515.542,210.826-519.36,210.826Z" transform="translate(602.243 -177.776)" fill="#fff"/>
        <path id="パス_8087" data-name="パス 8087" d="M-496.14,191.43v6.932c0,4.252-3.314,6.8-7.9,6.8-4.622,0-7.77-2.578-7.77-6.8V191.43c0-4.22,3.383-6.764,7.971-6.764S-496.14,187.244-496.14,191.43Zm-10.514.837v5.357c0,1.943.972,2.881,2.68,2.881s2.712-1,2.712-2.881v-5.357c0-1.942-.972-2.913-2.645-2.913C-505.649,189.355-506.654,190.359-506.654,192.267Z" transform="translate(608.104 -177.868)" fill="#fff"/>
        <path id="パス_8088" data-name="パス 8088" d="M-488.81,203.091a6.157,6.157,0,0,1-4.988,1.975c-4.019,0-5.994-2.109-5.994-6.4V184.842h5.156V197.5c0,1.742.469,2.948,2.31,2.948,2.111,0,3.015-.738,3.015-3.182V184.842h5.156v20.023h-4.419Z" transform="translate(614.374 -177.776)" fill="#fff"/>
        <path id="パス_8089" data-name="パス 8089" d="M-482.214,204.957h-5.157V184.934h4.419l.269,1.875a5.8,5.8,0,0,1,4.854-2.143h.368v4.689h-.9c-2.913,0-3.85,1.507-3.85,4.252Z" transform="translate(620.856 -177.868)" fill="#fff"/>
        <path id="パス_8090" data-name="パス 8090" d="M-455.965,207.264h-16.006v-4.689l9.275-11.317a5.155,5.155,0,0,0,1.341-3.381,2.546,2.546,0,0,0-2.613-2.779c-1.942,0-2.779,1.373-2.779,3.415h-5.189c0-4.921,2.678-8.269,7.9-8.269,5.023,0,7.9,2.712,7.9,7.265a10.733,10.733,0,0,1-2.511,6.63l-6.664,8.2h9.342Z" transform="translate(628.891 -180.176)" fill="#fff"/>
        <path id="パス_8091" data-name="パス 8091" d="M-443,187.532v12.489c0,5.057-3.85,7.467-8.135,7.467-4.252,0-7.969-2.277-7.969-7.3V187.7c0-5.055,3.852-7.5,8.137-7.5C-446.746,180.2-443,182.511-443,187.532Zm-10.847.7v11.25c0,2.009.969,3.015,2.779,3.015s2.812-.939,2.812-2.948V188.3c0-1.908-.937-3.047-2.779-3.047C-452.841,185.256-453.845,186.227-453.845,188.235Z" transform="translate(635.605 -180.199)" fill="#fff"/>
        <path id="パス_8092" data-name="パス 8092" d="M-430.045,207.264h-16.006v-4.689l9.275-11.317a5.155,5.155,0,0,0,1.341-3.381,2.547,2.547,0,0,0-2.613-2.779c-1.942,0-2.779,1.373-2.779,3.415h-5.189c0-4.921,2.677-8.269,7.9-8.269,5.023,0,7.9,2.712,7.9,7.265a10.733,10.733,0,0,1-2.511,6.63l-6.664,8.2h9.342Z" transform="translate(642.415 -180.176)" fill="#fff"/>
        <path id="パス_8093" data-name="パス 8093" d="M-417.078,187.532v12.489c0,5.057-3.85,7.467-8.135,7.467-4.252,0-7.969-2.277-7.969-7.3V187.7c0-5.055,3.852-7.5,8.137-7.5C-420.826,180.2-417.078,182.511-417.078,187.532Zm-10.849.7v11.25c0,2.009.971,3.015,2.78,3.015s2.812-.939,2.812-2.948V188.3c0-1.908-.937-3.047-2.779-3.047C-426.921,185.256-427.927,186.227-427.927,188.235Z" transform="translate(649.129 -180.199)" fill="#fff"/>
        <path id="パス_8094" data-name="パス 8094" d="M-411.384,207.419c-2.109,0-3.483-.5-4.354-1.473l-.3,1.272h-4.253V180.332h5.157v7.834a5.814,5.814,0,0,1,3.951-1.239c4.051,0,6.563,2.444,6.563,6.7v7.265C-404.62,205.109-407.434,207.419-411.384,207.419Zm-3.75-12.991v5.691c0,1.942,1.036,2.646,2.678,2.646a2.412,2.412,0,0,0,2.678-2.712v-5.626c0-1.943-1.071-2.846-2.645-2.846A2.554,2.554,0,0,0-415.134,194.428Z" transform="translate(655.856 -180.13)" fill="#fff"/>
        <path id="パス_8095" data-name="パス 8095" d="M-400.986,205.158c-4.655,0-7.569-2.745-7.569-6.965v-6.562c0-4.22,3.284-6.965,7.936-6.965s7.367,2.745,7.367,6.965v5.189h-10.311v1.441c0,1.674,1.237,2.377,2.846,2.377s2.511-.7,2.712-1.91h4.988C-393.418,202.346-395.93,205.158-400.986,205.158Zm-2.578-12.422h5.221V191.8a2.255,2.255,0,0,0-2.509-2.544c-1.542,0-2.712.737-2.712,2.544Z" transform="translate(661.979 -177.868)" fill="#fff"/>
        <path id="パス_8096" data-name="パス 8096" d="M-386.2,203.25c-1,1.272-2.578,1.875-4.921,1.875-3.852,0-5.927-2.243-5.927-6.194,0-4.421,2.879-6.965,10.079-7.2v-.3c0-1.876-.569-2.278-2.245-2.278-1.539,0-2.076.4-2.31,1.742h-5.156c.3-3.55,2.411-6.229,7.7-6.229,5.256,0,7.031,2.444,7.031,6.5v8.17c0,1.036.2,1.172.87,1.172h.4v4.453h-1.942A3.814,3.814,0,0,1-386.2,203.25Zm-3.684-2.645c2.412,0,2.914-1.138,2.914-2.747v-1.975c-3.85.234-4.923,1.373-4.923,2.913C-391.888,199.935-391.318,200.6-389.88,200.6Z" transform="translate(667.985 -177.868)" fill="#fff"/>
        <path id="パス_8097" data-name="パス 8097" d="M-373.305,206.576h-2.578c-5.055,0-6.9-1.707-6.9-6.865V191.24h-2.78v-4.687h2.78v-4.99h5.122v4.99h4.32v4.687h-4.32v7.969c0,2.109.6,2.645,2.511,2.645h1.841Z" transform="translate(673.977 -179.487)" fill="#fff"/>
        <path id="パス_8098" data-name="パス 8098" d="M-354.2,199c0,3.55-2.379,6.162-7.536,6.162-5.691,0-7.4-3.314-7.633-6.6h4.988a2.21,2.21,0,0,0,2.512,2.243c1.741,0,2.645-.469,2.645-1.607,0-2.913-9.744-1.272-9.744-8.6,0-3.249,2.345-5.927,7.2-5.927,4.955,0,7.164,2.611,7.3,6.731h-4.956c-.1-1.341-.569-2.345-2.41-2.345-1.542,0-2.143.671-2.143,1.508C-363.976,193.606-354.2,192.334-354.2,199Z" transform="translate(682.426 -177.868)" fill="#fff"/>
        <path id="パス_8099" data-name="パス 8099" d="M-350.543,205.158c-4.654,0-7.568-2.745-7.568-6.965v-6.562c0-4.22,3.282-6.965,7.936-6.965s7.365,2.745,7.365,6.965v5.189h-10.311v1.441c0,1.674,1.237,2.377,2.846,2.377s2.511-.7,2.712-1.91h4.99C-342.976,202.346-345.486,205.158-350.543,205.158Zm-2.578-12.422h5.223V191.8a2.256,2.256,0,0,0-2.511-2.544c-1.542,0-2.712.737-2.712,2.544Z" transform="translate(688.299 -177.868)" fill="#fff"/>
        <path id="パス_8100" data-name="パス 8100" d="M-340.027,207.219c-4.252,0-6.261-1-6.261-6.127v-20.76h5.157v20.122c0,1.507.3,2.042,1.907,2.042h.671v4.722Z" transform="translate(694.468 -180.13)" fill="#fff"/>
        <path id="パス_8101" data-name="パス 8101" d="M-332.928,191.882v15.336h-5.157V191.882H-340.8V187.2h2.712v-.5c0-4.821,2.176-6.361,7.031-6.361h2.111v4.654h-1.841c-1.64,0-2.143.469-2.143,1.942v.268h3.984v4.687Z" transform="translate(697.333 -180.13)" fill="#fff"/>
        <path id="パス_8102" data-name="パス 8102" d="M-326.19,185.287h-5.29v-4.955h5.29Zm-.067,21.932h-5.157V187.2h5.157Z" transform="translate(702.194 -180.13)" fill="#fff"/>
        <path id="パス_8103" data-name="パス 8103" d="M-318.743,205.158c-4.654,0-7.569-2.745-7.569-6.965v-6.562c0-4.22,3.284-6.965,7.936-6.965s7.367,2.745,7.367,6.965v5.189h-10.311v1.441c0,1.674,1.237,2.377,2.846,2.377s2.511-.7,2.712-1.91h4.988C-311.175,202.346-313.687,205.158-318.743,205.158Zm-2.578-12.422h5.223V191.8a2.256,2.256,0,0,0-2.511-2.544c-1.542,0-2.712.737-2.712,2.544Z" transform="translate(704.891 -177.868)" fill="#fff"/>
        <path id="パス_8104" data-name="パス 8104" d="M-297.114,203.25c-1,1.272-2.578,1.875-4.921,1.875-3.852,0-5.927-2.243-5.927-6.194,0-4.421,2.879-6.965,10.079-7.2v-.3c0-1.876-.569-2.278-2.243-2.278-1.54,0-2.077.4-2.312,1.742h-5.156c.3-3.55,2.41-6.229,7.7-6.229,5.256,0,7.031,2.444,7.031,6.5v8.17c0,1.036.2,1.172.87,1.172h.4v4.453h-1.94A3.815,3.815,0,0,1-297.114,203.25ZM-300.8,200.6c2.412,0,2.914-1.138,2.914-2.747v-1.975c-3.852.234-4.921,1.373-4.921,2.913C-302.806,199.935-302.237,200.6-300.8,200.6Z" transform="translate(714.465 -177.868)" fill="#fff"/>
        <path id="パス_8105" data-name="パス 8105" d="M-290.5,204.957h-5.156V184.934h4.419l.234,1.741a6.183,6.183,0,0,1,4.99-2.009c4.017,0,5.993,2.143,5.993,6.429v13.862h-5.157V192.234c0-1.741-.467-2.913-2.308-2.913-2.111,0-3.015.735-3.015,3.18Z" transform="translate(720.887 -177.868)" fill="#fff"/>
        <path id="パス_8106" data-name="パス 8106" d="M-272.786,205.846a5.533,5.533,0,0,1-4.285,1.574c-4.052,0-6.565-2.444-6.565-6.7v-7.265c0-4.22,2.814-6.563,6.766-6.563a6.428,6.428,0,0,1,3.748.971v-7.533h5.157v26.887h-4.62Zm-.336-5.894v-5.691c0-1.975-1.036-2.678-2.677-2.678a2.426,2.426,0,0,0-2.68,2.712v5.658c0,1.942,1.071,2.814,2.645,2.814A2.528,2.528,0,0,0-273.122,199.952Z" transform="translate(727.158 -180.13)" fill="#fff"/>
        <path id="パス_8107" data-name="パス 8107" d="M-254.44,192.435c-.033-1.942-.5-3.08-2.243-3.08-1.774,0-2.611,1-2.611,2.913v5.357c0,1.943.77,2.914,2.544,2.914,1.741,0,2.41-.905,2.512-2.546h5.089c-.2,4.287-2.713,7.166-7.769,7.166-4.655,0-7.534-2.745-7.534-6.965v-6.562c0-4.22,3.214-6.965,7.6-6.965,5.122,0,7.367,2.881,7.5,7.769Z" transform="translate(737.167 -177.868)" fill="#fff"/>
        <path id="パス_8108" data-name="パス 8108" d="M-247.638,207.219H-252.8V180.332h5.124v8.1a6.492,6.492,0,0,1,4.52-1.507c4.052,0,5.993,2.143,5.993,6.429v13.862h-5.156V194.5c0-1.741-.434-2.913-2.277-2.913-2.109,0-3.047.735-3.047,3.18Z" transform="translate(743.249 -180.13)" fill="#fff"/>
        <path id="パス_8109" data-name="パス 8109" d="M-233.232,205.158c-4.655,0-7.569-2.745-7.569-6.965v-6.562c0-4.22,3.282-6.965,7.936-6.965s7.367,2.745,7.367,6.965v5.189H-235.81v1.441c0,1.674,1.237,2.377,2.846,2.377s2.511-.7,2.712-1.91h4.988C-225.664,202.346-228.176,205.158-233.232,205.158Zm-2.578-12.422h5.221V191.8a2.256,2.256,0,0,0-2.509-2.544c-1.542,0-2.712.737-2.712,2.544Z" transform="translate(749.507 -177.868)" fill="#fff"/>
        <path id="パス_8110" data-name="パス 8110" d="M-221.625,205.158c-4.654,0-7.568-2.745-7.568-6.965v-6.562c0-4.22,3.282-6.965,7.934-6.965s7.367,2.745,7.367,6.965v5.189H-224.2v1.441c0,1.674,1.237,2.377,2.846,2.377s2.511-.7,2.712-1.91h4.99C-214.058,202.346-216.568,205.158-221.625,205.158Zm-2.578-12.422h5.223V191.8a2.256,2.256,0,0,0-2.511-2.544c-1.542,0-2.712.737-2.712,2.544Z" transform="translate(755.564 -177.868)" fill="#fff"/>
        <path id="パス_8111" data-name="パス 8111" d="M-212.17,204.957h-5.157V184.934h4.419l.269,1.875a5.794,5.794,0,0,1,4.854-2.143h.368v4.689h-.9c-2.913,0-3.85,1.507-3.85,4.252Z" transform="translate(761.755 -177.868)" fill="#fff"/>
        <path id="パス_8112" data-name="パス 8112" d="M-187.158,191.43v6.932c0,4.252-3.314,6.8-7.9,6.8-4.622,0-7.769-2.578-7.769-6.8V191.43c0-4.22,3.383-6.764,7.969-6.764S-187.158,187.244-187.158,191.43Zm-10.514.837v5.357c0,1.943.971,2.881,2.678,2.881s2.713-1,2.713-2.881v-5.357c0-1.942-.972-2.913-2.646-2.913C-196.667,189.355-197.672,190.359-197.672,192.267Z" transform="translate(769.32 -177.868)" fill="#fff"/>
        <path id="パス_8113" data-name="パス 8113" d="M-185.6,204.957h-5.157V184.934h4.419l.236,1.741a6.178,6.178,0,0,1,4.988-2.009c4.019,0,5.994,2.143,5.994,6.429v13.862h-5.157V192.234c0-1.741-.469-2.913-2.31-2.913-2.109,0-3.013.735-3.013,3.18Z" transform="translate(775.619 -177.868)" fill="#fff"/>
        <path id="パス_8114" data-name="パス 8114" d="M-159.648,206.576h-2.578c-5.055,0-6.9-1.707-6.9-6.865V191.24H-171.9v-4.687h2.779v-4.99H-164v4.99h4.32v4.687H-164v7.969c0,2.109.6,2.645,2.511,2.645h1.841Z" transform="translate(785.457 -179.487)" fill="#fff"/>
        <path id="パス_8115" data-name="パス 8115" d="M-156.982,207.219h-5.157V180.332h5.125v8.1a6.489,6.489,0,0,1,4.518-1.507c4.052,0,5.994,2.143,5.994,6.429v13.862h-5.157V194.5c0-1.741-.434-2.913-2.277-2.913-2.109,0-3.047.735-3.047,3.18Z" transform="translate(790.551 -180.13)" fill="#fff"/>
        <path id="パス_8116" data-name="パス 8116" d="M-142.576,205.158c-4.654,0-7.569-2.745-7.569-6.965v-6.562c0-4.22,3.284-6.965,7.936-6.965s7.367,2.745,7.367,6.965v5.189h-10.311v1.441c0,1.674,1.237,2.377,2.846,2.377s2.511-.7,2.712-1.91h4.988C-135.008,202.346-137.52,205.158-142.576,205.158Zm-2.578-12.422h5.221V191.8a2.255,2.255,0,0,0-2.509-2.544c-1.542,0-2.712.737-2.712,2.544Z" transform="translate(796.809 -177.868)" fill="#fff"/>
        <path id="パス_8117" data-name="パス 8117" d="M-120.947,203.25c-1,1.272-2.578,1.875-4.921,1.875-3.852,0-5.927-2.243-5.927-6.194,0-4.421,2.879-6.965,10.079-7.2v-.3c0-1.876-.569-2.278-2.243-2.278-1.54,0-2.077.4-2.312,1.742h-5.156c.3-3.55,2.41-6.229,7.7-6.229,5.256,0,7.031,2.444,7.031,6.5v8.17c0,1.036.2,1.172.87,1.172h.4v4.453h-1.942A3.814,3.814,0,0,1-120.947,203.25Zm-3.684-2.645c2.412,0,2.914-1.138,2.914-2.747v-1.975c-3.85.234-4.923,1.373-4.923,2.913C-126.64,199.935-126.07,200.6-124.632,200.6Z" transform="translate(806.383 -177.868)" fill="#fff"/>
        <path id="パス_8118" data-name="パス 8118" d="M-108.058,206.576h-2.578c-5.055,0-6.9-1.707-6.9-6.865V191.24h-2.78v-4.687h2.78v-4.99h5.122v4.99h4.32v4.687h-4.32v7.969c0,2.109.6,2.645,2.511,2.645h1.841Z" transform="translate(812.374 -179.487)" fill="#fff"/>
        <path id="パス_8119" data-name="パス 8119" d="M-105.392,207.219h-5.157V180.332h5.124v8.1a6.492,6.492,0,0,1,4.52-1.507c4.052,0,5.994,2.143,5.994,6.429v13.862h-5.157V194.5c0-1.741-.434-2.913-2.277-2.913-2.109,0-3.047.735-3.047,3.18Z" transform="translate(817.468 -180.13)" fill="#fff"/>
        <path id="パス_8120" data-name="パス 8120" d="M-92,207.219c-4.252,0-6.261-1-6.261-6.127v-20.76H-93.1v20.122c0,1.507.3,2.042,1.908,2.042h.67v4.722Z" transform="translate(823.881 -180.13)" fill="#fff"/>
        <path id="パス_8121" data-name="パス 8121" d="M-84.341,205.158c-4.654,0-7.568-2.745-7.568-6.965v-6.562c0-4.22,3.282-6.965,7.936-6.965s7.365,2.745,7.365,6.965v5.189H-86.919v1.441c0,1.674,1.239,2.377,2.846,2.377s2.512-.7,2.712-1.91h4.99C-76.774,202.346-79.284,205.158-84.341,205.158Zm-2.578-12.422h5.224V191.8a2.257,2.257,0,0,0-2.512-2.544c-1.54,0-2.712.737-2.712,2.544Z" transform="translate(827.194 -177.868)" fill="#fff"/>
        <path id="パス_8122" data-name="パス 8122" d="M-68.3,206.576h-2.578c-5.057,0-6.9-1.707-6.9-6.865V191.24h-2.779v-4.687h2.779v-4.99h5.124v4.99h4.32v4.687h-4.32v7.969c0,2.109.6,2.645,2.511,2.645H-68.3Z" transform="translate(833.118 -179.487)" fill="#fff"/>
        <path id="パス_8123" data-name="パス 8123" d="M-63.547,205.158c-4.654,0-7.568-2.745-7.568-6.965v-6.562c0-4.22,3.282-6.965,7.936-6.965s7.365,2.745,7.365,6.965v5.189H-66.125v1.441c0,1.674,1.239,2.377,2.846,2.377s2.512-.7,2.712-1.91h4.99C-55.98,202.346-58.49,205.158-63.547,205.158Zm-2.578-12.422H-60.9V191.8a2.256,2.256,0,0,0-2.511-2.544c-1.54,0-2.712.737-2.712,2.544Z" transform="translate(838.044 -177.868)" fill="#fff"/>
        <path id="パス_8124" data-name="パス 8124" d="M-44.469,199c0,3.55-2.377,6.162-7.534,6.162-5.691,0-7.4-3.314-7.635-6.6h4.99a2.208,2.208,0,0,0,2.511,2.243c1.742,0,2.645-.469,2.645-1.607,0-2.913-9.744-1.272-9.744-8.6,0-3.249,2.345-5.927,7.2-5.927,4.955,0,7.164,2.611,7.3,6.731h-4.956c-.1-1.341-.569-2.345-2.41-2.345-1.54,0-2.143.671-2.143,1.508C-54.246,193.606-44.469,192.334-44.469,199Z" transform="translate(844.032 -177.868)" fill="#fff"/>
        <path id="パス_8125" data-name="パス 8125" d="M-42.592,207.219h-5.425v-5.39h5.425Zm-4.988-8.706-.336-18.181h5.223l-.333,18.181Z" transform="translate(850.096 -180.13)" fill="#fff"/>
        <path id="パス_8126" data-name="パス 8126" d="M-562.666,231.7v11.518h-5.392V231.7l-7.031-15.37h5.526l4.285,9.744,4.287-9.744h5.357Z" transform="translate(575.088 -161.347)" fill="#fff"/>
        <path id="パス_8127" data-name="パス 8127" d="M-547.2,227.429v6.932c0,4.253-3.314,6.8-7.9,6.8-4.622,0-7.769-2.578-7.769-6.8v-6.932c0-4.218,3.383-6.763,7.969-6.763S-547.2,223.244-547.2,227.429Zm-10.514.838v5.358c0,1.94.971,2.878,2.678,2.878s2.713-1,2.713-2.878v-5.358c0-1.942-.972-2.914-2.646-2.914C-556.71,225.353-557.715,226.357-557.715,228.267Z" transform="translate(581.462 -159.085)" fill="#fff"/>
        <path id="パス_8128" data-name="パス 8128" d="M-539.873,239.091a6.154,6.154,0,0,1-4.988,1.975c-4.019,0-5.993-2.109-5.993-6.395v-13.83h5.154V233.5c0,1.742.47,2.948,2.312,2.948,2.109,0,3.013-.738,3.013-3.182V220.842h5.157v20.023h-4.419Z" transform="translate(587.732 -158.993)" fill="#fff"/>
        <path id="パス_8129" data-name="パス 8129" d="M-533.275,240.957h-5.157V220.934h4.421l.268,1.875a5.8,5.8,0,0,1,4.856-2.143h.367v4.687h-.9c-2.913,0-3.85,1.507-3.85,4.253Z" transform="translate(594.214 -159.085)" fill="#fff"/>
        <path id="パス_8130" data-name="パス 8130" d="M-507.028,243.265h-16v-4.687l9.274-11.319a5.144,5.144,0,0,0,1.341-3.381,2.546,2.546,0,0,0-2.611-2.779c-1.943,0-2.78,1.373-2.78,3.415H-523c0-4.923,2.678-8.271,7.9-8.271,5.022,0,7.9,2.712,7.9,7.268a10.741,10.741,0,0,1-2.511,6.629l-6.664,8.2h9.341Z" transform="translate(602.249 -161.392)" fill="#fff"/>
        <path id="パス_8131" data-name="パス 8131" d="M-494.059,223.534v12.489c0,5.055-3.85,7.466-8.137,7.466-4.252,0-7.968-2.277-7.968-7.3V223.7c0-5.055,3.85-7.5,8.137-7.5C-497.809,216.2-494.059,218.511-494.059,223.534Zm-10.849.7v11.25c0,2.009.971,3.015,2.779,3.015s2.814-.939,2.814-2.948V224.3c0-1.908-.937-3.048-2.779-3.048C-503.9,221.254-504.908,222.227-504.908,224.235Z" transform="translate(608.963 -161.415)" fill="#fff"/>
        <path id="パス_8132" data-name="パス 8132" d="M-481.108,243.265h-16v-4.687l9.274-11.319a5.144,5.144,0,0,0,1.341-3.381,2.546,2.546,0,0,0-2.613-2.779c-1.942,0-2.779,1.373-2.779,3.415h-5.189c0-4.923,2.678-8.271,7.9-8.271,5.022,0,7.9,2.712,7.9,7.268a10.741,10.741,0,0,1-2.511,6.629l-6.664,8.2h9.341Z" transform="translate(615.773 -161.392)" fill="#fff"/>
        <path id="パス_8133" data-name="パス 8133" d="M-468.138,223.534v12.489c0,5.055-3.85,7.466-8.137,7.466-4.252,0-7.968-2.277-7.968-7.3V223.7c0-5.055,3.85-7.5,8.137-7.5C-471.888,216.2-468.138,218.511-468.138,223.534Zm-10.849.7v11.25c0,2.009.971,3.015,2.779,3.015s2.814-.939,2.814-2.948V224.3c0-1.908-.937-3.048-2.779-3.048C-477.982,221.254-478.987,222.227-478.987,224.235Z" transform="translate(622.488 -161.415)" fill="#fff"/>
        <path id="パス_8134" data-name="パス 8134" d="M-462.445,243.42c-2.111,0-3.483-.5-4.354-1.473l-.3,1.272h-4.253V216.331h5.157v7.836a5.815,5.815,0,0,1,3.952-1.239c4.051,0,6.562,2.444,6.562,6.7v7.268C-455.682,241.11-458.494,243.42-462.445,243.42Zm-3.751-12.991v5.691c0,1.942,1.039,2.645,2.68,2.645a2.412,2.412,0,0,0,2.678-2.712v-5.624c0-1.943-1.071-2.846-2.646-2.846A2.554,2.554,0,0,0-466.2,230.429Z" transform="translate(629.213 -161.347)" fill="#fff"/>
        <path id="パス_8135" data-name="パス 8135" d="M-452.048,241.158c-4.654,0-7.568-2.745-7.568-6.964v-6.563c0-4.218,3.282-6.965,7.936-6.965s7.365,2.747,7.365,6.965v5.189h-10.311v1.441c0,1.672,1.239,2.375,2.846,2.375s2.512-.7,2.712-1.908h4.99C-444.481,238.346-446.991,241.158-452.048,241.158Zm-2.578-12.422h5.224V227.8a2.257,2.257,0,0,0-2.512-2.544c-1.54,0-2.712.737-2.712,2.544Z" transform="translate(635.337 -159.085)" fill="#fff"/>
        <path id="パス_8136" data-name="パス 8136" d="M-437.257,239.25c-1,1.272-2.578,1.875-4.921,1.875-3.85,0-5.926-2.243-5.926-6.2,0-4.419,2.878-6.964,10.079-7.2v-.3c0-1.873-.569-2.277-2.245-2.277-1.54,0-2.076.4-2.312,1.742h-5.154c.3-3.549,2.41-6.229,7.7-6.229,5.256,0,7.031,2.444,7.031,6.5v8.17c0,1.036.2,1.17.872,1.17h.4v4.454h-1.94A3.818,3.818,0,0,1-437.257,239.25Zm-3.683-2.645c2.41,0,2.914-1.138,2.914-2.747v-1.975c-3.852.234-4.924,1.373-4.924,2.913C-442.95,235.934-442.379,236.6-440.94,236.6Z" transform="translate(641.344 -159.085)" fill="#fff"/>
        <path id="パス_8137" data-name="パス 8137" d="M-424.366,242.576h-2.579c-5.055,0-6.9-1.707-6.9-6.865v-8.47h-2.779v-4.689h2.779v-4.99h5.122v4.99h4.32v4.689h-4.32v7.968c0,2.111.6,2.645,2.512,2.645h1.841Z" transform="translate(647.335 -160.704)" fill="#fff"/>
        <path id="パス_8138" data-name="パス 8138" d="M-407.76,230.318l-3.114,10.547h-4.587l-5.189-20.023h5.29l2.578,10.547,3.047-10.547h4.086l2.948,10.547,2.576-10.547h5.191l-5.191,20.023h-4.553Z" transform="translate(655.669 -158.993)" fill="#fff"/>
        <path id="パス_8139" data-name="パス 8139" d="M-397.041,221.287h-5.291v-4.956h5.291Zm-.067,21.932h-5.157V223.2h5.157Z" transform="translate(665.226 -161.347)" fill="#fff"/>
        <path id="パス_8140" data-name="パス 8140" d="M-390.578,243.219c-4.252,0-6.261-1-6.261-6.127V216.331h5.157v20.125c0,1.507.3,2.041,1.908,2.041h.67v4.722Z" transform="translate(668.092 -161.347)" fill="#fff"/>
        <path id="パス_8141" data-name="パス 8141" d="M-383.978,243.219c-4.252,0-6.261-1-6.261-6.127V216.331h5.156v20.125c0,1.507.3,2.041,1.908,2.041h.671v4.722Z" transform="translate(671.536 -161.347)" fill="#fff"/>
        <path id="パス_8142" data-name="パス 8142" d="M-371.289,240.957h-5.156V220.934h4.419l.269,1.875a5.794,5.794,0,0,1,4.854-2.143h.367v4.687h-.9c-2.913,0-3.852,1.507-3.852,4.253Z" transform="translate(678.733 -159.085)" fill="#fff"/>
        <path id="パス_8143" data-name="パス 8143" d="M-361.206,241.158c-4.654,0-7.568-2.745-7.568-6.964v-6.563c0-4.218,3.282-6.965,7.934-6.965s7.367,2.747,7.367,6.965v5.189h-10.311v1.441c0,1.672,1.237,2.375,2.846,2.375s2.511-.7,2.712-1.908h4.99C-353.639,238.346-356.151,241.158-361.206,241.158Zm-2.578-12.422h5.223V227.8a2.256,2.256,0,0,0-2.511-2.544c-1.542,0-2.712.737-2.712,2.544Z" transform="translate(682.736 -159.085)" fill="#fff"/>
        <path id="パス_8144" data-name="パス 8144" d="M-346.415,239.25c-1,1.272-2.578,1.875-4.921,1.875-3.85,0-5.927-2.243-5.927-6.2,0-4.419,2.879-6.964,10.079-7.2v-.3c0-1.873-.569-2.277-2.243-2.277-1.54,0-2.076.4-2.312,1.742h-5.154c.3-3.549,2.409-6.229,7.7-6.229,5.256,0,7.031,2.444,7.031,6.5v8.17c0,1.036.2,1.17.87,1.17h.4v4.454h-1.94A3.818,3.818,0,0,1-346.415,239.25ZM-350.1,236.6c2.412,0,2.914-1.138,2.914-2.747v-1.975c-3.852.234-4.921,1.373-4.921,2.913C-352.107,235.934-351.538,236.6-350.1,236.6Z" transform="translate(688.741 -159.085)" fill="#fff"/>
        <path id="パス_8145" data-name="パス 8145" d="M-335.262,228.435c-.033-1.943-.5-3.082-2.243-3.082-1.774,0-2.613,1-2.613,2.914v5.358c0,1.94.771,2.913,2.546,2.913,1.741,0,2.41-.9,2.511-2.544h5.089c-.2,4.285-2.712,7.164-7.767,7.164-4.655,0-7.534-2.745-7.534-6.964v-6.563c0-4.218,3.214-6.965,7.6-6.965,5.122,0,7.367,2.881,7.5,7.769Z" transform="translate(694.997 -159.085)" fill="#fff"/>
        <path id="パス_8146" data-name="パス 8146" d="M-328.461,243.219h-5.156V216.331h5.124v8.1a6.493,6.493,0,0,1,4.52-1.507c4.052,0,5.993,2.143,5.993,6.429v13.862h-5.156V230.5c0-1.742-.435-2.913-2.278-2.913-2.108,0-3.047.737-3.047,3.179Z" transform="translate(701.079 -161.347)" fill="#fff"/>
        <path id="パス_8147" data-name="パス 8147" d="M-302.508,242.576h-2.578c-5.057,0-6.9-1.707-6.9-6.865v-8.47h-2.779v-4.689h2.779v-4.99h5.124v4.99h4.32v4.689h-4.32v7.968c0,2.111.6,2.645,2.511,2.645h1.841Z" transform="translate(710.917 -160.704)" fill="#fff"/>
        <path id="パス_8148" data-name="パス 8148" d="M-299.843,243.219H-305V216.331h5.124v8.1a6.493,6.493,0,0,1,4.52-1.507c4.052,0,5.993,2.143,5.993,6.429v13.862h-5.156V230.5c0-1.742-.434-2.913-2.277-2.913-2.109,0-3.047.737-3.047,3.179Z" transform="translate(716.011 -161.347)" fill="#fff"/>
        <path id="パス_8149" data-name="パス 8149" d="M-285.437,241.158c-4.655,0-7.569-2.745-7.569-6.964v-6.563c0-4.218,3.282-6.965,7.936-6.965s7.367,2.747,7.367,6.965v5.189h-10.313v1.441c0,1.672,1.239,2.375,2.847,2.375s2.511-.7,2.712-1.908h4.988C-277.871,238.346-280.381,241.158-285.437,241.158Zm-2.579-12.422h5.223V227.8a2.256,2.256,0,0,0-2.509-2.544c-1.542,0-2.713.737-2.713,2.544Z" transform="translate(722.269 -159.085)" fill="#fff"/>
        <path id="パス_8150" data-name="パス 8150" d="M-275.982,240.957h-5.157V220.934h4.421l.234,1.674a5.781,5.781,0,0,1,4.787-1.942c2.111,0,3.852.47,4.956,2.277a6.143,6.143,0,0,1,5.224-2.277c4.017,0,5.857,2.143,5.857,6.429v13.862h-5.154V228.234c0-1.742-.336-2.913-2.178-2.913-2.109,0-2.846.737-2.846,3.179v12.457h-5.157V228.234c0-1.742-.3-2.913-2.143-2.913-2.109,0-2.846.737-2.846,3.179Z" transform="translate(728.461 -159.085)" fill="#fff"/>
        <path id="パス_8151" data-name="パス 8151" d="M-247.772,227.884v15.335h-5.156V227.884h-2.713V223.2h2.713v-.5c0-4.821,2.175-6.363,7.031-6.363h2.109v4.655h-1.841c-1.64,0-2.143.469-2.143,1.942v.268h3.984v4.689Z" transform="translate(741.764 -161.347)" fill="#fff"/>
        <path id="パス_8152" data-name="パス 8152" d="M-241.157,240.957h-5.156V220.934h4.419l.269,1.875a5.794,5.794,0,0,1,4.854-2.143h.367v4.687h-.9c-2.913,0-3.85,1.507-3.85,4.253Z" transform="translate(746.632 -159.085)" fill="#fff"/>
        <path id="パス_8153" data-name="パス 8153" d="M-222.961,227.429v6.932c0,4.253-3.314,6.8-7.9,6.8-4.622,0-7.77-2.578-7.77-6.8v-6.932c0-4.218,3.383-6.763,7.969-6.763S-222.961,223.244-222.961,227.429Zm-10.514.838v5.358c0,1.94.972,2.878,2.68,2.878s2.712-1,2.712-2.878v-5.358c0-1.942-.972-2.914-2.645-2.914C-232.47,225.353-233.475,226.357-233.475,228.267Z" transform="translate(750.639 -159.085)" fill="#fff"/>
        <path id="パス_8154" data-name="パス 8154" d="M-221.4,240.957h-5.157V220.934h4.421l.234,1.674a5.783,5.783,0,0,1,4.787-1.942c2.109,0,3.852.47,4.956,2.277a6.143,6.143,0,0,1,5.224-2.277c4.017,0,5.859,2.143,5.859,6.429v13.862h-5.156V228.234c0-1.742-.336-2.913-2.178-2.913-2.109,0-2.846.737-2.846,3.179v12.457h-5.157V228.234c0-1.742-.3-2.913-2.143-2.913-2.109,0-2.846.737-2.846,3.179Z" transform="translate(756.939 -159.085)" fill="#fff"/>
        <path id="パス_8155" data-name="パス 8155" d="M-190.344,239.25c-1,1.272-2.578,1.875-4.921,1.875-3.85,0-5.926-2.243-5.926-6.2,0-4.419,2.878-6.964,10.079-7.2v-.3c0-1.873-.569-2.277-2.245-2.277-1.54,0-2.076.4-2.312,1.742h-5.154c.3-3.549,2.41-6.229,7.7-6.229,5.256,0,7.031,2.444,7.031,6.5v8.17c0,1.036.2,1.17.872,1.17h.4v4.454h-1.94A3.818,3.818,0,0,1-190.344,239.25Zm-3.683-2.645c2.412,0,2.914-1.138,2.914-2.747v-1.975c-3.853.234-4.923,1.373-4.923,2.913C-196.035,235.934-195.466,236.6-194.027,236.6Z" transform="translate(770.175 -159.085)" fill="#fff"/>
        <path id="パス_8156" data-name="パス 8156" d="M-183.726,240.957h-5.157V220.934h4.419l.269,1.875a5.8,5.8,0,0,1,4.856-2.143h.367v4.687h-.9c-2.913,0-3.85,1.507-3.85,4.253Z" transform="translate(776.596 -159.085)" fill="#fff"/>
        <path id="パス_8157" data-name="パス 8157" d="M-165.53,227.429v6.932c0,4.253-3.316,6.8-7.9,6.8-4.622,0-7.769-2.578-7.769-6.8v-6.932c0-4.218,3.381-6.763,7.969-6.763S-165.53,223.244-165.53,227.429Zm-10.515.838v5.358c0,1.94.972,2.878,2.68,2.878s2.712-1,2.712-2.878v-5.358c0-1.942-.971-2.914-2.645-2.914C-175.039,225.353-176.045,226.357-176.045,228.267Z" transform="translate(780.605 -159.085)" fill="#fff"/>
        <path id="パス_8158" data-name="パス 8158" d="M-158.2,239.091a6.153,6.153,0,0,1-4.988,1.975c-4.019,0-5.994-2.109-5.994-6.395v-13.83h5.156V233.5c0,1.742.47,2.948,2.312,2.948,2.109,0,3.013-.738,3.013-3.182V220.842h5.157v20.023h-4.421Z" transform="translate(786.875 -158.993)" fill="#fff"/>
        <path id="パス_8159" data-name="パス 8159" d="M-151.6,240.957h-5.157V220.934h4.421l.234,1.741a6.183,6.183,0,0,1,4.988-2.009c4.019,0,5.994,2.143,5.994,6.429v13.862h-5.156V228.234c0-1.742-.47-2.913-2.312-2.913-2.109,0-3.013.737-3.013,3.179Z" transform="translate(793.357 -159.085)" fill="#fff"/>
        <path id="パス_8160" data-name="パス 8160" d="M-133.893,241.846a5.537,5.537,0,0,1-4.287,1.574c-4.052,0-6.563-2.445-6.563-6.7v-7.265c0-4.218,2.812-6.562,6.764-6.562a6.43,6.43,0,0,1,3.75.969v-7.534h5.157v26.888h-4.62Zm-.336-5.892V230.26a2.347,2.347,0,0,0-2.678-2.677,2.426,2.426,0,0,0-2.678,2.712v5.659c0,1.942,1.071,2.811,2.645,2.811A2.527,2.527,0,0,0-134.229,235.954Z" transform="translate(799.627 -161.347)" fill="#fff"/>
        <path id="パス_8161" data-name="パス 8161" d="M-113.546,242.576h-2.578c-5.057,0-6.9-1.707-6.9-6.865v-8.47H-125.8v-4.689h2.779v-4.99h5.124v4.99h4.319v4.689H-117.9v7.968c0,2.111.6,2.645,2.511,2.645h1.841Z" transform="translate(809.51 -160.704)" fill="#fff"/>
        <path id="パス_8162" data-name="パス 8162" d="M-110.881,243.219h-5.157V216.331h5.122v8.1a6.5,6.5,0,0,1,4.521-1.507c4.051,0,5.993,2.143,5.993,6.429v13.862h-5.154V230.5c0-1.742-.437-2.913-2.278-2.913-2.109,0-3.047.737-3.047,3.179Z" transform="translate(814.604 -161.347)" fill="#fff"/>
        <path id="パス_8163" data-name="パス 8163" d="M-96.475,241.158c-4.655,0-7.569-2.745-7.569-6.964v-6.563c0-4.218,3.282-6.965,7.936-6.965s7.367,2.747,7.367,6.965v5.189H-99.054v1.441c0,1.672,1.239,2.375,2.846,2.375s2.512-.7,2.713-1.908h4.988C-88.909,238.346-91.419,241.158-96.475,241.158Zm-2.579-12.422h5.224V227.8a2.257,2.257,0,0,0-2.511-2.544c-1.542,0-2.713.737-2.713,2.544Z" transform="translate(820.863 -159.085)" fill="#fff"/>
        <path id="パス_8164" data-name="パス 8164" d="M-73.092,230.318l-3.114,10.547h-4.587l-5.189-20.023h5.29l2.578,10.547,3.047-10.547h4.086l2.946,10.547,2.578-10.547h5.191l-5.191,20.023H-70.01Z" transform="translate(830.287 -158.993)" fill="#fff"/>
        <path id="パス_8165" data-name="パス 8165" d="M-52.646,227.429v6.932c0,4.253-3.314,6.8-7.9,6.8-4.622,0-7.769-2.578-7.769-6.8v-6.932c0-4.218,3.381-6.763,7.969-6.763S-52.646,223.244-52.646,227.429Zm-10.514.838v5.358c0,1.94.972,2.878,2.68,2.878s2.712-1,2.712-2.878v-5.358c0-1.942-.971-2.914-2.645-2.914C-62.156,225.353-63.16,226.357-63.16,228.267Z" transform="translate(839.504 -159.085)" fill="#fff"/>
        <path id="パス_8166" data-name="パス 8166" d="M-51.081,240.957h-5.156V220.934h4.419l.269,1.875a5.794,5.794,0,0,1,4.854-2.143h.367v4.687h-.9c-2.913,0-3.852,1.507-3.852,4.253Z" transform="translate(845.807 -159.085)" fill="#fff"/>
        <path id="パス_8167" data-name="パス 8167" d="M-42.035,243.219c-4.252,0-6.261-1-6.261-6.127V216.331h5.157v20.125c0,1.507.3,2.041,1.908,2.041h.67v4.722Z" transform="translate(849.95 -161.347)" fill="#fff"/>
        <path id="パス_8168" data-name="パス 8168" d="M-31.087,241.846a5.533,5.533,0,0,1-4.285,1.574c-4.052,0-6.565-2.445-6.565-6.7v-7.265c0-4.218,2.814-6.562,6.766-6.562a6.437,6.437,0,0,1,3.75.969v-7.534h5.156v26.888h-4.62Zm-.335-5.892V230.26a2.347,2.347,0,0,0-2.678-2.677,2.427,2.427,0,0,0-2.68,2.712v5.659c0,1.942,1.071,2.811,2.645,2.811A2.527,2.527,0,0,0-31.422,235.954Z" transform="translate(853.268 -161.347)" fill="#fff"/>
        <path id="パス_8169" data-name="パス 8169" d="M-23.76,235.849h-5.425v-5.392h5.425Z" transform="translate(859.921 -153.976)" fill="#fff"/>
      </g>
    </g>
  </g>
</svg>
