<svg xmlns="http://www.w3.org/2000/svg" width="440.691" height="132" viewBox="0 0 440.691 132">
  <g id="グループ_1636" data-name="グループ 1636" transform="translate(-174 -4184)">
    <g id="グループ_1634" data-name="グループ 1634" transform="translate(174 4184)">
      <circle id="楕円形_453" data-name="楕円形 453" cx="66" cy="66" r="66" fill="#1b83b9"/>
      <g id="_4" data-name=" 4" transform="translate(45.89 40.219)">
        <g id="グループ_240" data-name="グループ 240">
          <path id="パス_3913" data-name="パス 3913" d="M330.043,416.934H319.183V408H299.2v-9.574l15.936-33.286h11.63l-15.936,33.286h8.355V388.147h10.859v10.281h5.332V408h-5.332Z" transform="translate(-299.198 -365.142)" fill="#fff"/>
        </g>
      </g>
    </g>
    <g id="グループ_1635" data-name="グループ 1635" transform="translate(332.4 4202.48)">
      <g id="グループ_1601" data-name="グループ 1601" transform="translate(0 0)">
        <path id="パス_7627" data-name="パス 7627" d="M703.881,705.762h21.428V712.6H711.435v7.887h12.5v6.558h-12.5v16.867h-7.554Z" transform="translate(-703.406 -705.762)" fill="#1b83b9"/>
        <path id="パス_7628" data-name="パス 7628" d="M730.478,712.794h-7.507v-7.032h7.507Zm-.1,31.122h-7.317V715.5h7.317Z" transform="translate(-697.297 -705.762)" fill="#1b83b9"/>
        <path id="パス_7629" data-name="パス 7629" d="M739.262,741.646h-7.317V713.233h6.271l.333,2.471c1.664-2.091,4.372-2.851,7.081-2.851,5.7,0,8.5,3.04,8.5,9.122v19.671h-7.317V723.591c0-2.471-.667-4.134-3.278-4.134-2.994,0-4.278,1.045-4.278,4.514Z" transform="translate(-694.425 -703.493)" fill="#1b83b9"/>
        <path id="パス_7630" data-name="パス 7630" d="M766.869,741.967c-1.331,1.426-3.278,2.233-6.083,2.233-5.749,0-9.311-3.469-9.311-9.5V724.387c0-5.988,3.99-9.312,9.6-9.312a9.122,9.122,0,0,1,5.321,1.378V705.762h7.317v38.153h-6.555Zm-.475-8.362v-8.077c0-2.8-1.472-3.8-3.8-3.8-2.232,0-3.8,1.14-3.8,3.849v8.03c0,2.756,1.521,3.99,3.753,3.99S766.394,736.313,766.394,733.6Z" transform="translate(-688.176 -705.762)" fill="#1b83b9"/>
        <path id="パス_7631" data-name="パス 7631" d="M786.833,750.011h-2.091V743.5h1.377c2.045,0,2.9-.38,3.516-2.566l-8.03-27.8h7.318L793.2,729.01l4.276-15.869h7.174l-8.362,28.841C794.388,748.491,792.25,750.011,786.833,750.011Z" transform="translate(-678.534 -703.401)" fill="#1b83b9"/>
        <path id="パス_7632" data-name="パス 7632" d="M822.088,722.451v9.835c0,6.034-4.7,9.645-11.215,9.645-6.556,0-11.022-3.659-11.022-9.645v-9.835c0-5.987,4.8-9.6,11.308-9.6S822.088,716.512,822.088,722.451Zm-14.919,1.188v7.6c0,2.756,1.375,4.085,3.8,4.085s3.849-1.424,3.849-4.085v-7.6c0-2.756-1.377-4.134-3.753-4.134C808.595,719.5,807.169,720.93,807.169,723.639Z" transform="translate(-672.695 -703.493)" fill="#1b83b9"/>
        <path id="パス_7633" data-name="パス 7633" d="M834.962,739.035c-1.663,2.091-4.372,2.8-7.08,2.8-5.7,0-8.5-2.994-8.5-9.075V713.141h7.317V731.1c0,2.471.665,4.182,3.279,4.182,2.994,0,4.277-1.045,4.277-4.514V713.141h7.317v28.413h-6.271Z" transform="translate(-666.447 -703.401)" fill="#1b83b9"/>
        <path id="パス_7634" data-name="パス 7634" d="M846.879,741.646h-7.317V713.233h6.27l.383,2.66a8.222,8.222,0,0,1,6.888-3.04h.524V719.5h-1.284c-4.133,0-5.464,2.138-5.464,6.034Z" transform="translate(-659.988 -703.493)" fill="#1b83b9"/>
        <path id="パス_7635" data-name="パス 7635" d="M873.153,733.189c0,5.036-3.374,8.742-10.691,8.742-8.077,0-10.5-4.7-10.833-9.36h7.079c.238,1.806.95,3.184,3.563,3.184,2.471,0,3.754-.665,3.754-2.281,0-4.134-13.826-1.806-13.826-12.211,0-4.609,3.325-8.41,10.215-8.41,7.032,0,10.168,3.705,10.357,9.55H865.74c-.142-1.9-.808-3.326-3.42-3.326-2.186,0-3.041.951-3.041,2.138C859.278,725.538,873.153,723.734,873.153,733.189Z" transform="translate(-656.126 -703.493)" fill="#1b83b9"/>
        <path id="パス_7636" data-name="パス 7636" d="M880.658,741.931c-6.6,0-10.738-3.9-10.738-9.883v-9.313c0-5.988,4.656-9.883,11.261-9.883s10.453,3.9,10.453,9.883V730.1H877v2.043c0,2.376,1.758,3.373,4.039,3.373s3.564-1,3.849-2.707h7.079C891.4,737.94,887.833,741.931,880.658,741.931ZM877,724.3h7.412v-1.331c0-2.519-1.377-3.612-3.563-3.612S877,720.407,877,722.974Z" transform="translate(-650.273 -703.493)" fill="#1b83b9"/>
        <path id="パス_7637" data-name="パス 7637" d="M898.011,743.915c-6.035,0-8.885-1.426-8.885-8.695V705.762h7.317v28.556c0,2.138.428,2.9,2.709,2.9h.95v6.7Z" transform="translate(-644.127 -705.762)" fill="#1b83b9"/>
        <path id="パス_7638" data-name="パス 7638" d="M909.115,722.154v21.761H901.8V722.154h-3.849V715.5H901.8v-.713c0-6.843,3.089-9.027,9.978-9.027h2.992v6.6h-2.612c-2.328,0-3.041.665-3.041,2.756v.38h5.654v6.651Z" transform="translate(-641.304 -705.762)" fill="#1b83b9"/>
        <path id="パス_7639" data-name="パス 7639" d="M711.026,754.794h-7.505v-7.032h7.505Zm-.094,31.122h-7.318V757.5h7.318Z" transform="translate(-703.521 -692.322)" fill="#1b83b9"/>
        <path id="パス_7640" data-name="パス 7640" d="M719.812,783.646H712.5V755.233h6.271l.333,2.471c1.663-2.091,4.373-2.851,7.079-2.851,5.7,0,8.506,3.04,8.506,9.122v19.671h-7.317V765.591c0-2.471-.665-4.134-3.28-4.134-2.992,0-4.275,1.045-4.275,4.514Z" transform="translate(-700.649 -690.053)" fill="#1b83b9"/>
        <path id="パス_7641" data-name="パス 7641" d="M760.737,785.271h-3.658c-7.176,0-9.789-2.424-9.789-9.74V763.509h-3.943v-6.651h3.943v-7.081h7.271v7.081h6.129v6.651H754.56v11.308c0,2.994.855,3.754,3.563,3.754h2.614Z" transform="translate(-690.777 -691.677)" fill="#1b83b9"/>
        <path id="パス_7642" data-name="パス 7642" d="M766.5,785.915H759.18V747.762h7.269v11.5a9.21,9.21,0,0,1,6.414-2.138c5.749,0,8.5,3.04,8.5,9.122v19.671H774.05V767.86c0-2.471-.616-4.134-3.23-4.134-2.994,0-4.323,1.045-4.323,4.514Z" transform="translate(-685.71 -692.322)" fill="#1b83b9"/>
        <path id="パス_7643" data-name="パス 7643" d="M789.409,783.931c-6.605,0-10.74-3.9-10.74-9.883v-9.313c0-5.988,4.657-9.883,11.261-9.883s10.453,3.9,10.453,9.883V772.1H785.748v2.043c0,2.376,1.758,3.373,4.039,3.373s3.563-1,3.849-2.707h7.079C800.145,779.94,796.581,783.931,789.409,783.931Zm-3.66-17.627h7.412v-1.331c0-2.519-1.377-3.612-3.563-3.612s-3.849,1.045-3.849,3.612Z" transform="translate(-679.474 -690.053)" fill="#1b83b9"/>
        <path id="パス_7644" data-name="パス 7644" d="M822.475,783.554h-6.556l-7.982-28.413h7.317l4.087,14.919,4.038-14.919h7.079Z" transform="translate(-670.108 -689.961)" fill="#1b83b9"/>
        <path id="パス_7645" data-name="パス 7645" d="M834.527,754.794h-7.505v-7.032h7.505Zm-.094,31.122h-7.318V757.5h7.318Z" transform="translate(-664.001 -692.322)" fill="#1b83b9"/>
        <path id="パス_7646" data-name="パス 7646" d="M850.777,783.967c-1.331,1.426-3.278,2.233-6.083,2.233-5.749,0-9.311-3.469-9.311-9.5V766.387c0-5.988,3.99-9.312,9.6-9.312a9.129,9.129,0,0,1,5.322,1.378V747.762h7.317v38.153h-6.556ZM850.3,775.6v-8.077c0-2.8-1.473-3.8-3.8-3.8-2.234,0-3.8,1.14-3.8,3.849v8.03c0,2.756,1.521,3.99,3.754,3.99S850.3,778.313,850.3,775.6Z" transform="translate(-661.325 -692.322)" fill="#1b83b9"/>
        <path id="パス_7647" data-name="パス 7647" d="M865.738,783.931c-6.6,0-10.74-3.9-10.74-9.883v-9.313c0-5.988,4.657-9.883,11.261-9.883s10.454,3.9,10.454,9.883V772.1H862.077v2.043c0,2.376,1.758,3.373,4.041,3.373s3.563-1,3.849-2.707h7.079C876.476,779.94,872.911,783.931,865.738,783.931Zm-3.66-17.627h7.414v-1.331c0-2.519-1.378-3.612-3.565-3.612s-3.849,1.045-3.849,3.612Z" transform="translate(-655.048 -690.053)" fill="#1b83b9"/>
        <path id="パス_7648" data-name="パス 7648" d="M896.1,764.451v9.835c0,6.034-4.7,9.645-11.213,9.645-6.558,0-11.023-3.659-11.023-9.645v-9.835c0-5.987,4.8-9.6,11.308-9.6S896.1,758.512,896.1,764.451Zm-14.92,1.188v7.6c0,2.756,1.378,4.085,3.8,4.085s3.849-1.424,3.849-4.085v-7.6c0-2.756-1.377-4.134-3.753-4.134C882.6,761.5,881.176,762.93,881.176,765.639Z" transform="translate(-649.013 -690.053)" fill="#1b83b9"/>
        <path id="パス_7649" data-name="パス 7649" d="M914.2,775.189c0,5.036-3.374,8.742-10.691,8.742-8.077,0-10.5-4.7-10.833-9.36h7.079c.238,1.806.952,3.184,3.564,3.184,2.471,0,3.753-.665,3.753-2.281,0-4.134-13.827-1.806-13.827-12.211,0-4.609,3.328-8.41,10.218-8.41,7.03,0,10.168,3.705,10.357,9.55h-7.031c-.143-1.9-.808-3.326-3.422-3.326-2.186,0-3.041.951-3.041,2.138C900.325,767.538,914.2,765.734,914.2,775.189Z" transform="translate(-642.991 -690.053)" fill="#1b83b9"/>
        <path id="パス_7650" data-name="パス 7650" d="M919.244,785.915h-7.7v-7.65h7.7Zm-7.079-12.354-.477-25.8H919.1l-.475,25.8Z" transform="translate(-636.953 -692.322)" fill="#1b83b9"/>
      </g>
    </g>
  </g>
</svg>
