<svg xmlns="http://www.w3.org/2000/svg" width="143" height="143" viewBox="0 0 143 143">
  <g id="Twitter_Social_Icon_Circle_Color" transform="translate(0.206 -0.202)">
    <g id="Dark_Blue" transform="translate(-0.206 0.202)">
      <circle id="楕円形_52" data-name="楕円形 52" cx="71.5" cy="71.5" r="71.5" transform="translate(0 0)" fill="#1da1f2"/>
    </g>
    <g id="Logo__x2014__FIXED" transform="translate(32.357 41.045)">
      <path id="パス_4158" data-name="パス 4158" d="M116.191,183.154c31.883,0,49.316-26.419,49.316-49.316,0-.755,0-1.51-.036-2.229a35.509,35.509,0,0,0,8.663-8.986,35.18,35.18,0,0,1-9.957,2.732,17.323,17.323,0,0,0,7.62-9.6,35.1,35.1,0,0,1-11,4.206,17.342,17.342,0,0,0-29.978,11.862,15.884,15.884,0,0,0,.467,3.954,49.17,49.17,0,0,1-35.729-18.116,17.324,17.324,0,0,0,5.392,23.112,17.026,17.026,0,0,1-7.836-2.157v.216a17.351,17.351,0,0,0,13.911,17,17.279,17.279,0,0,1-4.565.611,16.55,16.55,0,0,1-3.271-.323,17.306,17.306,0,0,0,16.175,12.041,34.842,34.842,0,0,1-21.531,7.4,31.519,31.519,0,0,1-4.134-.252,48.291,48.291,0,0,0,26.491,7.836" transform="translate(-89.7 -114.5)" fill="#fff"/>
    </g>
  </g>
</svg>
