<svg xmlns="http://www.w3.org/2000/svg" width="143" height="143" viewBox="0 0 143 143">
  <g id="グループ_1065" data-name="グループ 1065" transform="translate(-896 -44.54)">
    <g id="FULL_COLOR_ICON" data-name="FULL COLOR ICON" transform="translate(896 44.54)">
      <rect id="長方形_192" data-name="長方形 192" width="143" height="143" rx="19.5" transform="translate(0 0)"/>
    </g>
    <g id="グループ_691" data-name="グループ 691" transform="translate(929.431 72.939)">
      <path id="パス_4772" data-name="パス 4772" d="M946.756,85.118V81.745a26.2,26.2,0,0,0-18.562,47.438,26.2,26.2,0,0,1,18.562-44.065" transform="translate(-916.999 -51.065)" fill="#00f2ea"/>
      <path id="パス_4773" data-name="パス 4773" d="M939.689,134.617a11.981,11.981,0,0,0,11.953-11.528l.022-57.1H962.1a19.816,19.816,0,0,1-.338-3.616H947.513l-.024,57.1a11.952,11.952,0,0,1-17.508,10.149,11.956,11.956,0,0,0,9.708,4.991m41.892-49.243V82.2a19.706,19.706,0,0,1-10.794-3.21,19.834,19.834,0,0,0,10.8,6.382" transform="translate(-909.313 -62.378)" fill="#00f2ea"/>
      <path id="パス_4774" data-name="パス 4774" d="M973.174,77.644A19.737,19.737,0,0,1,968.3,64.65h-3.816a19.856,19.856,0,0,0,8.691,12.994M937.924,105.7a11.972,11.972,0,0,0-5.558,22.577,11.957,11.957,0,0,1,9.71-18.963,11.768,11.768,0,0,1,3.533.556V95.329a26.235,26.235,0,0,0-3.533-.258c-.208,0-.412.013-.619.016v11.171a11.767,11.767,0,0,0-3.533-.554" transform="translate(-911.7 -61.033)" fill="#ff004f"/>
      <path id="パス_4775" data-name="パス 4775" d="M985.1,76.823V87.9a33.892,33.892,0,0,1-19.823-6.375v28.953a26.2,26.2,0,0,1-41.25,21.47,26.206,26.206,0,0,0,45.4-17.853V85.138a33.889,33.889,0,0,0,19.822,6.375V77.262a19.83,19.83,0,0,1-4.153-.441" transform="translate(-912.836 -53.827)" fill="#ff004f"/>
      <path id="パス_4776" data-name="パス 4776" d="M967.9,117.679V88.726A33.89,33.89,0,0,0,987.722,95.1V84.028a19.832,19.832,0,0,1-10.794-6.384,19.856,19.856,0,0,1-8.691-12.994H957.806l-.022,57.1a11.953,11.953,0,0,1-21.661,6.535,11.971,11.971,0,0,1,5.556-22.577,11.733,11.733,0,0,1,3.533.554V95.087a26.2,26.2,0,0,0-18.562,44.065,26.2,26.2,0,0,0,41.25-21.472" transform="translate(-915.454 -61.033)" fill="#fff"/>
    </g>
  </g>
</svg>
