<svg xmlns="http://www.w3.org/2000/svg" width="769.184" height="501.26" viewBox="0 0 769.184 501.26">
  <g id="グループ_1636" data-name="グループ 1636" transform="translate(0 -4027.867)">
    <g id="グループ_1459" data-name="グループ 1459" transform="translate(0.184 3581)">
      <path id="パス_6858" data-name="パス 6858" d="M79.955,929.611c-39.348,0-79.621-2.089-80.139-2.116l.368-6.99c.664.035,66.861,3.47,112.164,1.5C158.65,919.99,161,915.94,161,909.5c0-4.783-10.579-8.269-21.122-10.716-8.3,5.429-22.248,8.467-31.087,9.2-11.075.922-25.273-.52-29.766-5.013a8.745,8.745,0,0,1-2.252-8.619c1.094-3.948,4.694-6.956,9.878-8.252,7.33-1.832,19.819-.919,40.494,2.956l.585.11c3.419.641,7,1.31,10.548,2.065a6.793,6.793,0,0,0,1.183-1.471c2.211-3.87,1.616-5.006-4.9-9.352-1-.666-1.883-1.217-2.663-1.7-4.531-2.825-6.9-4.607-6.9-11.21,0-8.229,9.988-10.019,15.955-11.088.67-.12,1.3-.231,1.858-.344C152.691,854.093,228.284,841,272.5,841c45.819,0,56.265,1.983,56.687,2.068l-1.374,6.864c-.084-.016-10.706-1.932-55.313-1.932-47.117,0-127.567,14.782-128.313,14.932-.6.121-1.278.242-2,.371-3.048.546-10.189,1.825-10.189,4.2,0,3.025,0,3.025,3.6,5.27.832.518,1.775,1.107,2.841,1.818,5.379,3.585,12.727,8.483,7.246,18.385C157.822,896.158,168,900.869,168,909.5c0,14.733-13.142,17.662-55.348,19.5C102.473,929.439,91.25,929.611,79.955,929.611Zm15.764-37.423a31.431,31.431,0,0,0-7.37.708c-2.629.657-4.434,1.9-4.83,3.329a1.8,1.8,0,0,0,.456,1.8c1.568,1.569,11.543,4.043,24.234,2.987a82.451,82.451,0,0,0,20.472-4.541l-2.24-.421-.586-.11C116.638,894.212,104.581,892.188,95.719,892.188Z" fill="#eee"/>
      <path id="パス_6859" data-name="パス 6859" d="M528.021,552l-.042-7c.816-.005,81.806-.516,106.538-3.967,23.437-3.27,39.294-8.4,40.495-22.824.426-5.112-3.013-8-8.309-11.819-1.017-.735-1.977-1.427-2.89-2.157-5.3-4.243-11.313-9.05-11.313-18.733,0-10.439,7.621-17.639,22.651-21.4,13.93-3.482,30.406-5.1,51.849-5.1h42v7H727c-20.855,0-36.791,1.556-50.151,4.9-15.55,3.887-17.349,10.2-17.349,14.6,0,6.317,3.833,9.385,8.687,13.267.775.621,1.667,1.264,2.612,1.945,5.054,3.646,11.975,8.641,11.189,18.079-1.913,22.953-30.921,27-46.505,29.176C610.293,551.481,531.368,551.98,528.021,552Z" transform="translate(0 -7)" fill="#eee"/>
    </g>
    <path id="パス_7499" data-name="パス 7499" d="M3028.264,222.618c1.335-3.948,2.687-8,2.576-12.167A26.435,26.435,0,0,0,3027.976,200a41.4,41.4,0,0,0-2.315-4.454,24.743,24.743,0,0,1-2.532-4.807c-1.093-3.107-1.884-6.365-2.775-9.538a24.034,24.034,0,0,1-.853-3.818c-.132-1.159-.093-2.335-.257-3.489a20.51,20.51,0,0,1-.618-4.334.9.9,0,0,0-.062-.545.813.813,0,0,0-.563-.292c-2.088-.424-4.2.528-6.2-.2l-24.11,66.486a10.43,10.43,0,0,1-.707,2.512,42.31,42.31,0,0,0-8.9-8.08,18.448,18.448,0,0,0-11.722-3.241,10.3,10.3,0,0,0-3.474.906,20.322,20.322,0,0,0-4.4,3.53,14.444,14.444,0,0,0-3.8,4.876,18.015,18.015,0,0,0-.969,3.409,21.5,21.5,0,0,0-.632,5.082c.115,3.568,2.056,7.016,4.392,9.62a21.977,21.977,0,0,0,2.408,2.3,20.713,20.713,0,0,0,11.153,4.744,15.567,15.567,0,0,0,5.954-.6,17.666,17.666,0,0,0,5.527-3.2l2.115-1.6a19.177,19.177,0,0,0,1.983-1.64,19.375,19.375,0,0,0,1.512-1.757,14.51,14.51,0,0,0,2.5-4.019c.4-.028.411-.9.615-1.282a47.146,47.146,0,0,0,4.167-10.471l15.03-41.446a12.072,12.072,0,0,1,.954-2.61c1.344,2.349,1.347,5.305,2.948,7.486.589.8,1.344,1.466,2,2.218a18.619,18.619,0,0,1,1.788,2.541,33.711,33.711,0,0,1,4.122,9.22,18.082,18.082,0,0,1-.125,10l.174-.384c.122.312.412.868.742.917a8.133,8.133,0,0,0,5.146-.952C3028.319,222.827,3028.328,222.918,3028.264,222.618Z" transform="translate(-2316.226 4545.449) rotate(-13)" fill="#8cc8e2"/>
    <path id="パス_7498" data-name="パス 7498" d="M2635.665,519.591c-1.411-4.218-3.063-8.349-4.562-12.537-.756-2.113-1.544-4.252-2.113-6.426-.523-2-.764-3.889-1.859-5.714a5.373,5.373,0,0,0-1.129-1.4,2.546,2.546,0,0,0-1.652-.634l-.473.234c-9.741-.366-19.492.2-29.224.766l-11.949.695a111.439,111.439,0,0,0-11.429,1.06,5.747,5.747,0,0,0-3.223,1.28,4.067,4.067,0,0,0-.969,3.42,12.055,12.055,0,0,0,1.215,3.462,65.482,65.482,0,0,1,3.063,8.616c.417,1.347,1.206,2.467,1.655,3.806l2.012,6,6.235,18.587,6.134,18.287,2.411,7.187c.211.631-.44.7-1.087.848a4.833,4.833,0,0,1-1.975-.134,21.92,21.92,0,0,0-12.988,1.487c-1.617.721-2.879,2.291-4.133,3.539a17.231,17.231,0,0,0-3.725,5.315c-3.029,7,.816,13.868,5.991,18.554a13.968,13.968,0,0,0,3.2,2.346,15.2,15.2,0,0,0,2.794.933,15.734,15.734,0,0,0,9.781.365c2.4-.535,4.889-1.107,6.865-2.579a16.961,16.961,0,0,0,2.666-2.672,29.1,29.1,0,0,0,2.764-3.622c3.738-6.091,1.889-12.933-.244-19.185-.7-2.052-.9-4.261-1.712-6.269-.32-.786-.731-1.537-.975-2.349a25.793,25.793,0,0,1-.522-3.483c-.5-3.2-2.124-6.255-3.071-9.34-1.006-3.276-2.045-6.564-3.04-9.853a31.249,31.249,0,0,0-1.346-3.841c-.536-1.187-1.22-2.3-1.8-3.471-1.014-2.047-.689-2.6-1.486-4.973-.314-.935-1.768-2.771-2.118-3.692l-.687-2.862c12.5-1.154,25.057-1.587,37.6-2.02a28.755,28.755,0,0,1,4.917.11c2.745,5.028,4.108,10.647,5.752,16.091.409,1.355.834,2.706,1.3,4.041a25.639,25.639,0,0,1,1.372,3.72c.479,2.686,1.824,4.984,2.643,7.586.421,1.335.66,2.721,1.01,4.078.385,1.5.9,2.963,1.422,4.423q.994,2.8,1.986,5.6c-1.366.4-2.912-.147-4.323-.342a24.935,24.935,0,0,0-7.973.47,13.356,13.356,0,0,0-3.285.947,14.859,14.859,0,0,0-2.671,1.781,14.343,14.343,0,0,0-3.844,3.867,14.173,14.173,0,0,0-.933,2.1l-.642,1.678c-1.833,4.8.669,10.992,3.631,14.871a9.811,9.811,0,0,0,2.165,2.181,12.778,12.778,0,0,0,2.13,1.105,21.341,21.341,0,0,0,6.459,2.067,14.473,14.473,0,0,0,2.847-.04,22.5,22.5,0,0,0,7.4-2.073,18.318,18.318,0,0,0,5.139-3.881,16.355,16.355,0,0,0,2.425-2.938,19.712,19.712,0,0,0,1.939-5.149q.349-1.276.7-2.551a16.125,16.125,0,0,0,.692-3.589,13.935,13.935,0,0,0-.582-4.014,53.279,53.279,0,0,0-2.344-7c-1.446-3.492-2.5-6.9-3.827-10.44-.4-1.068-.8-2.138-1.1-3.241-.614-2.288-.78-4.736-1.891-6.828-2.023-3.8-2.073-8.4-3.441-12.485Zm-12.357-9.885a.88.88,0,0,1-.125.833.908.908,0,0,1-.523.182q-3.858.485-7.742.734c-1.722.11-3.447.187-5.174.173-1.67-.014-3.34-.112-5.009-.173a172.38,172.38,0,0,0-18.819.53c-1.691.123-3.877.52-5.537.06-1.442-.4-1.729-2.64-2.059-3.927q-.238-.93-.476-1.858a3.714,3.714,0,0,1-.162-1.039c.051-1.368,2.18-1.2,3.192-1.385a32.547,32.547,0,0,1,3.91-.533c1.083-.06,2.169-.012,3.253.025a257.873,257.873,0,0,0,31.772-1.007c.32-.156.623.237.766.563q.776,1.765,1.55,3.533A16.988,16.988,0,0,1,2623.308,509.706Z" transform="translate(-2467.831 3928.992)" fill="#8cc8e2"/>
  </g>
</svg>
