<svg xmlns="http://www.w3.org/2000/svg" xmlns:xlink="http://www.w3.org/1999/xlink" width="2000" height="600" viewBox="0 0 2000 600">
  <defs>
    <clipPath id="clip-path">
      <rect id="長方形_372" data-name="長方形 372" width="2000" height="600" fill="none"/>
    </clipPath>
  </defs>
  <g id="グループ_1633" data-name="グループ 1633" transform="translate(317 -1709)">
    <g id="グループ_1592" data-name="グループ 1592" transform="translate(-317 1709)">
      <g id="グループ_1591" data-name="グループ 1591" clip-path="url(#clip-path)">
        <g id="グループ_1590" data-name="グループ 1590">
          <path id="パス_7483" data-name="パス 7483" d="M-747,417c3-6,440-346,1014-372C850.649,18.563,870,417,1299,367c310.54-36.193,292-254,601-294,173.555-22.467,295,59,403,177" fill="none" stroke="#eee" stroke-miterlimit="10" stroke-width="4"/>
          <path id="パス_7484" data-name="パス 7484" d="M-685.5,532c49-52.5,452.575-402.477,968.25-421.75C814.487,90.672,856.078,455.883,1308.5,402,1625.155,364.355,1621,129,1902,90.25c170.926-24.092,291.5,57.5,400,172.25" fill="none" stroke="#eee" stroke-miterlimit="10" stroke-width="4"/>
          <path id="パス_7485" data-name="パス 7485" d="M-624,647c95-99,465.15-458.953,922.5-471.5C778.324,162.781,842.156,494.766,1318,437c322.77-39.1,333.085-291.433,586-329.5,168.354-25.339,288,56,397,167.5" fill="none" stroke="#eee" stroke-miterlimit="10" stroke-width="4"/>
          <path id="パス_7486" data-name="パス 7486" d="M-562.5,762c141-145.5,477.725-515.43,876.75-521.25C742.162,234.891,828.233,533.648,1327.5,472,1656.385,431.452,1681,161,1906,124.75c165.668-27.341,284.5,54.5,394,162.75" fill="none" stroke="#eee" stroke-miterlimit="10" stroke-width="4"/>
          <path id="パス_7487" data-name="パス 7487" d="M-501,877C-314,685-10.7,305.094,330,306c376,1,484.311,266.531,1007,201,335-42,374-330,571-365,163.04-28.966,281,53,391,158" fill="none" stroke="#eee" stroke-miterlimit="10" stroke-width="4"/>
        </g>
      </g>
    </g>
    <path id="パス_7488" data-name="パス 7488" d="M484.036,343.066a40.293,40.293,0,0,0-14.5-21.092c-2.1-1.572-5.283-2.141-7.761-3.03a61.316,61.316,0,0,0-11.106-3.2,48.66,48.66,0,0,0-8.439-.429,63.919,63.919,0,0,0-11.355,1.214c-3.1-9.75-7.051-19.387-10.347-29.047,1.134-1.4,2.248-2.821,3.305-4.281a44.238,44.238,0,0,1,2.97-3.885c1.055-1.155,2.264-2.159,3.389-3.247a40.236,40.236,0,0,0,8.893-13.072c2.791-6.483,5.59-12.993,7.379-19.818,1.456-5.553,2.993-12.746,1.5-18.441-1.561-5.944-2.364-11.959-4.33-17.88a35.273,35.273,0,0,0-1.789-4.64,34,34,0,0,0-2.872-4.524c-2.264-3.166-4.645-6.373-7.91-8.493a21.8,21.8,0,0,0-11.845-3.1c-17.8-.037-34.835,15.842-34.169,33.985a93.006,93.006,0,0,0,1.4,14.23c1.009,5.136,3.035,10,4.994,14.828,2.1,5.178,4.128,10.384,5.991,15.653,1.7,4.805,2.909,9.462,5.432,14.029a8.106,8.106,0,0,1,1.025,2.4l.186.641q-9.235,8.441-17.71,17.663c-2.558,2.784-5.446,5.523-7.447,8.709-2.294,3.655-4.57,7.319-6.715,11.062a55.349,55.349,0,0,0-6.138,13.978c-1.761,7.111-.091,14.474,1.5,21.507a61.815,61.815,0,0,0,8.7,21.2,106.121,106.121,0,0,0,7.135,8.851c2.15,2.537,4.053,5.194,6.834,7.111,3.394,2.341,7.216,4,10.617,6.291a43.333,43.333,0,0,0,8.593,4.409c2.774,1.074,5.49,2.525,8.383,3.172,6.522,1.461,13.3.575,19.841-.3,2.082-.277,4.148-.575,6.2-.922.424,1.428.822,2.867,1.165,4.314.368,1.558.3,3.089.71,4.633a74.171,74.171,0,0,1,2.632,13.272,7.448,7.448,0,0,1-.433,3.953c-1.12,2.25-4.125,3.212-6.441,3.534a4.643,4.643,0,0,1-1.6,0,5.785,5.785,0,0,1-2.39-1.4q-2.509-2.093-4.924-4.3l-1,.11a6.2,6.2,0,0,0-4.663.785,18.393,18.393,0,0,0-3.715,3.1l-1.421,1.416a6.384,6.384,0,0,0-1.358,1.707,2.175,2.175,0,0,0,.023,2.1c1.53,2.322,2.308,4.88,4.279,6.843a27.707,27.707,0,0,0,3.993,3.291,25.778,25.778,0,0,0,17.132,4.4,22.306,22.306,0,0,0,15.3-8.616c3.676-4.957,4.347-10.589,3.233-16.452-1.416-7.461-2.751-14.679-4.868-22.007l-1.36-4.707c.51-.226,1.027-.438,1.533-.685,6.375-3.11,11.682-9.86,16.312-15.108a27.978,27.978,0,0,0,3.01-3.864,27.648,27.648,0,0,0,2.138-4.721q2.212-5.894,4.107-11.9a20.954,20.954,0,0,0,.927-8.875A79.379,79.379,0,0,0,484.036,343.066Zm-45.582,48.443c-2.413.748-4.919,1.5-7.424,1.169-4.141-.557-8.02.589-12.031-.582-4.729-1.381-8.628-4.67-12.313-7.938a97.288,97.288,0,0,1-9.944-9.946,25.538,25.538,0,0,1-2.839-3.275c-1-1.712-1.281-3.9-2.073-5.725-.88-2.029-1.985-3.969-2.681-6.068a33.593,33.593,0,0,1-1.216-6.159c-.342-2.567-1.12-5.178-1.365-7.726-.238-2.485.468-5.36,1.034-7.768a84.085,84.085,0,0,1,3.557-10.717,36.631,36.631,0,0,1,1.477-3.5c.436-.862.939-1.689,1.447-2.511,4.829-7.84,10.652-14.549,16.538-21.46l5.486,19.166q.426,1.488.845,2.984a45.818,45.818,0,0,0-9.483,6.727,22.783,22.783,0,0,0-4.766,5.786,20.779,20.779,0,0,0-1.735,4.556A33.537,33.537,0,0,0,400.183,352c.13.9.291,1.789.482,2.676a5.822,5.822,0,0,0,.613,1.807,2.474,2.474,0,0,0,.55.627l-.494-.219c.184.1.38.186.566.286a1.937,1.937,0,0,0,.554.28,32.892,32.892,0,0,0,9.282,3.112c4.272.736,5.385-1.617,4.768-5.234-.706-4.128.37-5.744,3.99-8.451.885-.662,1.8-1.272,2.735-1.845a40.19,40.19,0,0,1,1.766,4.107c1.26,3.645,2.562,7.274,3.846,10.913q3.756,10.664,7.517,21.325c1.16,3.291,2.162,6.531,3.051,9.827ZM407.66,241.952c-.615-2.355-1.195-4.717-1.682-7.1a139.742,139.742,0,0,1-2.229-17.076c-.356-4.558.31-9.017,3.473-12.557a11.422,11.422,0,0,1,8.213-3.911,12.485,12.485,0,0,1,8.458,3.587,23.87,23.87,0,0,1,5.215,7.766,44.772,44.772,0,0,1,1.6,32.371c-.452,1.337-.967,2.651-1.479,3.965q-1.37,3.494-2.735,6.986c-1.037,2.644-2.388,4.321-3.911,6.718a17.158,17.158,0,0,1-5.928,5.991c-.252.14-.168.324-.273.056A239.687,239.687,0,0,1,407.66,241.952Zm62.37,113.261a57.435,57.435,0,0,1-.184,8.842A29.142,29.142,0,0,1,453.9,386.274c-.133.065-.27.117-.4.179-1.318-3.364-2.669-6.715-3.706-10.226-1.19-4.034-2.273-8.1-3.6-12.094-.682-2.054-1.5-4.046-2.271-6.063-.668-1.742-.839-3.65-1.384-5.467-1.307-4.372-3.063-8.593-4.714-12.849a40.846,40.846,0,0,1,11.5-.077c3.983.538,7.743.231,11.339,2.243C465.473,344.615,469.852,349.474,470.03,355.213Z" transform="translate(-324.305 1616.898)" fill="#8cc8e2"/>
    <path id="パス_7489" data-name="パス 7489" d="M2657.106,527.677c-1.838-5.495-3.991-10.876-5.943-16.331-.985-2.753-2.011-5.539-2.752-8.371-.682-2.606-1-5.066-2.421-7.444a7,7,0,0,0-1.47-1.828,3.317,3.317,0,0,0-2.153-.826l-.616.3c-12.69-.477-25.392.261-38.069,1l-15.566.905a145.121,145.121,0,0,0-14.888,1.381,7.486,7.486,0,0,0-4.2,1.667,5.3,5.3,0,0,0-1.263,4.456,15.7,15.7,0,0,0,1.583,4.51,85.268,85.268,0,0,1,3.99,11.224c.543,1.755,1.571,3.213,2.156,4.958l2.621,7.815,8.123,24.214,7.991,23.823,3.141,9.363c.275.822-.574.91-1.417,1.1a6.294,6.294,0,0,1-2.572-.174,28.557,28.557,0,0,0-16.92,1.938c-2.107.939-3.75,2.985-5.383,4.61a22.451,22.451,0,0,0-4.853,6.924c-3.946,9.121,1.063,18.066,7.8,24.17a18.2,18.2,0,0,0,4.169,3.056,19.813,19.813,0,0,0,3.64,1.215,20.5,20.5,0,0,0,12.742.475c3.132-.7,6.369-1.442,8.943-3.359a22.072,22.072,0,0,0,3.473-3.481,37.933,37.933,0,0,0,3.6-4.718c4.869-7.935,2.461-16.848-.318-24.992-.914-2.674-1.167-5.55-2.23-8.167-.417-1.024-.953-2-1.27-3.06a33.589,33.589,0,0,1-.68-4.537c-.653-4.166-2.767-8.148-4-12.167-1.31-4.268-2.664-8.551-3.96-12.835a40.62,40.62,0,0,0-1.753-5c-.7-1.547-1.589-3-2.344-4.522-1.321-2.667-.9-3.386-1.936-6.478-.41-1.218-2.3-3.609-2.76-4.809l-.9-3.728c16.286-1.5,32.641-2.068,48.986-2.631a37.463,37.463,0,0,1,6.4.144c3.576,6.55,5.351,13.869,7.493,20.961.533,1.765,1.086,3.525,1.7,5.264a33.43,33.43,0,0,1,1.787,4.846c.624,3.5,2.375,6.493,3.443,9.882.548,1.74.86,3.545,1.315,5.312.5,1.954,1.178,3.86,1.853,5.762q1.294,3.648,2.587,7.3c-1.78.52-3.794-.191-5.632-.445a32.481,32.481,0,0,0-10.387.613,17.4,17.4,0,0,0-4.28,1.234,19.348,19.348,0,0,0-3.479,2.32,18.677,18.677,0,0,0-5.007,5.038,18.464,18.464,0,0,0-1.215,2.731q-.419,1.094-.835,2.186c-2.388,6.253.871,14.319,4.729,19.372a12.791,12.791,0,0,0,2.821,2.841,16.645,16.645,0,0,0,2.775,1.44,27.8,27.8,0,0,0,8.414,2.692,18.86,18.86,0,0,0,3.709-.052,29.311,29.311,0,0,0,9.637-2.7,23.859,23.859,0,0,0,6.694-5.056,21.292,21.292,0,0,0,3.159-3.828,25.674,25.674,0,0,0,2.526-6.708q.454-1.663.909-3.323a20.991,20.991,0,0,0,.9-4.676,18.169,18.169,0,0,0-.758-5.229,69.435,69.435,0,0,0-3.054-9.116c-1.884-4.549-3.253-8.992-4.985-13.6-.523-1.391-1.048-2.785-1.434-4.222-.8-2.98-1.017-6.17-2.463-8.894-2.635-4.956-2.7-10.942-4.483-16.264Zm-16.1-12.878a1.146,1.146,0,0,1-.163,1.085,1.185,1.185,0,0,1-.682.237q-5.026.632-10.086.956c-2.244.144-4.491.244-6.74.225-2.176-.019-4.351-.146-6.525-.225a224.527,224.527,0,0,0-24.515.69c-2.2.161-5.051.677-7.213.078-1.879-.519-2.252-3.438-2.682-5.115q-.31-1.211-.62-2.42a4.823,4.823,0,0,1-.211-1.354c.066-1.782,2.84-1.569,4.158-1.8a42.391,42.391,0,0,1,5.093-.694c1.411-.078,2.826-.015,4.238.032a335.957,335.957,0,0,0,41.389-1.311c.417-.2.812.308,1,.733q1.011,2.3,2.019,4.6A22.152,22.152,0,0,1,2641.008,514.8Z" transform="translate(-1918.831 1604.124)" fill="#8cc8e2"/>
    <path id="パス_7490" data-name="パス 7490" d="M3055.579,242.267c1.82-5.383,3.663-10.905,3.512-16.587-.131-4.982-1.8-9.773-3.9-14.241a56.45,56.45,0,0,0-3.155-6.073,33.736,33.736,0,0,1-3.453-6.554c-1.49-4.236-2.567-8.678-3.783-13a32.754,32.754,0,0,1-1.163-5.205c-.179-1.58-.127-3.183-.35-4.757-.279-1.976-.991-3.918-.843-5.908a1.221,1.221,0,0,0-.085-.742,1.107,1.107,0,0,0-.768-.4c-2.846-.578-5.721.719-8.453-.271l-32.868,90.639a14.248,14.248,0,0,1-.964,3.425,57.678,57.678,0,0,0-12.135-11.015,25.15,25.15,0,0,0-15.98-4.418,14.036,14.036,0,0,0-4.736,1.235c-2.3,1.107-4.125,3.124-6,4.813a19.685,19.685,0,0,0-5.187,6.647,24.582,24.582,0,0,0-1.321,4.647,29.3,29.3,0,0,0-.861,6.928c.156,4.864,2.8,9.565,5.987,13.114a29.978,29.978,0,0,0,3.283,3.139,28.238,28.238,0,0,0,15.2,6.467,21.222,21.222,0,0,0,8.117-.811c2.95-.908,5.122-2.546,7.535-4.366l2.883-2.175a19.736,19.736,0,0,0,4.765-4.63,19.774,19.774,0,0,0,3.413-5.48c.552-.038.56-1.234.838-1.748a64.261,64.261,0,0,0,5.681-14.276l20.49-56.5a16.462,16.462,0,0,1,1.3-3.558c1.832,3.2,1.836,7.232,4.02,10.205.8,1.094,1.832,2,2.722,3.024a25.334,25.334,0,0,1,2.438,3.464,45.958,45.958,0,0,1,5.62,12.569,24.65,24.65,0,0,1-.169,13.635l.236-.524c.166.425.562,1.183,1.012,1.25a11.088,11.088,0,0,0,7.015-1.3C3055.654,242.553,3055.666,242.676,3055.579,242.267Z" transform="translate(-1717.077 2447.447) rotate(-13)" fill="#8cc8e2"/>
  </g>
</svg>
