<?xml version="1.0" encoding="utf-8"?>
<!-- Generator: Adobe Illustrator 23.0.4, SVG Export Plug-In . SVG Version: 6.00 Build 0)  -->
<svg version="1.1" id="レイヤー_1" xmlns="http://www.w3.org/2000/svg" xmlns:xlink="http://www.w3.org/1999/xlink" x="0px"
	 y="0px" viewBox="0 0 1490 882" style="enable-background:new 0 0 1490 882;" xml:space="preserve">
<style type="text/css">
	.st0{clip-path:url(#SVGID_2_);}
	.st1{fill:none;}
	.st2{fill:#FFFFFF;}
</style>
<g>
	<defs>
		<rect id="SVGID_1_" width="1487.7" height="882"/>
	</defs>
	<clipPath id="SVGID_2_">
		<use xlink:href="#SVGID_1_"  style="overflow:visible;"/>
	</clipPath>
	<g id="グループ_1627" class="st0">
		<g id="グループ_1735" transform="translate(-119 -953)">
			<g id="レイヤー_7">
				<rect id="長方形_405" x="117.7" y="953" class="st1" width="1489" height="880.3"/>
				<path id="パス_8156" class="st2" d="M658.1,1431c-6.5,0-13-0.5-19.4-1.4c-11.1-1.5-21.9-4.7-32.1-9.3c-1.7-0.8-2-1.8-2.1-2.2
					l-1.1-10c-0.3-1.7-0.2-3.4,0.2-5.1c0.7-2.3,2.4-4.1,3.8-5.5c3.5-3.5,7.1-7.1,11.6-9.5c9.3-4.9,20.3-3.7,29.9-2.2
					c6.9,1.1,14.6,2.7,19.2,8.5c2.6,3.3,3.6,7.5,4.6,11.1c0.6,2.2,1.3,4.9,2,7.7c1.5,5.7,2.8,11,3,12c0.5,0.9,1.4,1.5,2.4,1.5
					l-0.4,3c-0.5-0.1-1.1-0.2-1.6-0.4l0.1,0.4C671.6,1430.5,664.9,1431,658.1,1431z M607.5,1417.3c0.1,0.1,0.3,0.2,0.4,0.2
					c9.9,4.5,20.4,7.6,31.2,9.1c12,1.7,24.2,1.8,36.2,0.2c-0.2-0.4-0.4-0.8-0.5-1.2c-0.2-0.9-1.6-6.5-3-11.8c-0.7-2.7-1.4-5.5-2-7.7
					c-0.9-3.4-1.8-7.2-4-10c-3.9-5-10.9-6.4-17.3-7.4c-9.2-1.4-19.6-2.6-28.1,1.9c-4.1,2.2-7.6,5.6-10.9,9c-1.2,1.2-2.6,2.6-3.1,4.2
					c-0.3,1.3-0.3,2.7-0.1,4L607.5,1417.3z"/>
				<path id="パス_8157" class="st2" d="M605.5,1413.7c-0.6,0-1.2-0.4-1.4-1c-0.2-0.5-0.4-1.1-0.7-1.6c-1.4-2.8-3.4-6.7,0.3-14.9
					c5.6-12.6,16.7-23.1,30.3-28.9c13.1-5.6,27.4-7.5,41.2-9.3l16.4-2.2c4.5-0.7,9-1.1,13.6-1.3c4.2-0.1,8.4,0.2,12.5,0.4
					c13.9,0.9,28.3,1.9,42.5,3.7c20.9,2.7,40.4,2.3,61.1,1.9c5.1-0.1,10.3-0.2,15.6-0.2c19-0.2,37.1-1.2,49.9-11.8
					c2.5-2.2,4.8-4.6,6.8-7.2c1.5-1.8,3.1-3.7,4.8-5.4l1.5-1.5c4-4,8.2-8.2,11.3-13c3.4-5.3,5.4-11.5,7.4-17.5l8.1-24.7
					c1.6-4.8,3.2-9.8,3.6-14.9c0.6-8.2-1.8-18.8-3.6-26.6c-1.5-6.6-4.7-12.9-7.8-19c-0.6-1.2-1.2-2.4-1.8-3.6
					c-6.2-12.4-11.6-26.3-17.1-43.7c-0.3-1.3-0.8-2.4-1.6-3.5c-1-1.2-2.7-1.8-4.7-2.4l-13.9-4.4c0.3,12.1-2.1,24.2-6.9,35.3
					c-2.6,6-5.8,10-9.6,12c5.1,5.7,7.5,14,9.6,21.4l0.6,2.1c1,3.4,1.7,6.9,2.3,10.4c0.9,4.9,1.8,9.5,3.6,14
					c5.3,12.8,6.9,23.8,5,33.7c-2.1,10.9-9,20.3-18,24.4c-6.4,2.9-13.7,3.3-20.4,1.1c-0.8-0.2-1.2-1.1-1-1.9c0.2-0.8,1.1-1.2,1.9-1
					l0,0l0.1,0c6,2,12.4,1.6,18.2-1c8.1-3.7,14.3-12.2,16.3-22.2c1.8-9.3,0.2-19.8-4.8-32c-1.8-4.7-3.1-9.6-3.8-14.6
					c-0.6-3.4-1.3-6.8-2.3-10.1l-0.6-2.1c-2.3-7.8-4.8-16.5-10.4-21.6l-1.9-1.7l2.4-0.8c3.9-1.3,7.2-5,9.9-11.3
					c4.9-11,7.4-24.9,6.5-36.1l-0.2-2.2l18.1,5.8c2,0.6,4.4,1.4,6.1,3.4c1,1.3,1.7,2.9,2.2,4.5c5.5,17.2,10.9,31,17,43.3
					c0.6,1.2,1.2,2.4,1.8,3.6c3.2,6.2,6.4,12.7,8,19.7c1.8,8,4.3,18.9,3.6,27.5c-0.4,5.4-2.1,10.6-3.8,15.6l-8.1,24.7
					c-2,6.1-4.1,12.5-7.7,18.2c-3.2,5.1-7.5,9.4-11.7,13.5l-1.5,1.5c-1.6,1.6-3.1,3.4-4.6,5.2c-2.2,2.7-4.6,5.3-7.2,7.6
					c-14.7,12.1-36.1,12.3-51.7,12.5c-5.2,0.1-10.5,0.2-15.5,0.2c-20.8,0.4-40.5,0.8-61.5-1.9c-14-1.8-28.4-2.8-42.3-3.7
					c-4-0.3-8.2-0.6-12.3-0.4c-4.4,0.2-8.9,0.6-13.3,1.3l-16.4,2.2c-13.6,1.8-27.6,3.7-40.4,9.1c-12.9,5.5-23.4,15.5-28.8,27.4
					c-3.1,6.9-1.7,9.8-0.4,12.3c0.3,0.6,0.6,1.3,0.9,2c0.3,0.8-0.2,1.6-0.9,1.9C605.8,1413.7,605.6,1413.7,605.5,1413.7
					L605.5,1413.7z"/>
				<path id="パス_8158" class="st2" d="M846.6,1321c-1.9,0.1-3.6-1-4.3-2.8c-0.3-1.4-0.1-2.9,0.6-4.2l3.6-7.8
					c0.5-0.8,0.7-1.7,0.8-2.6c-0.1-0.8-0.4-1.6-0.9-2.4l-10.2-19.4c-1.5-2.9-3.1-5.9-5.5-8c-2-1.6-4.1-2.9-6.4-3.9
					c-2.8-1.2-5.4-2.9-7.7-4.9c-0.6-0.6-0.6-1.5,0-2.1c0.6-0.6,1.5-0.6,2.1,0c2,1.8,4.4,3.3,6.9,4.4c2.6,1.1,5,2.6,7.1,4.4
					c2.8,2.5,4.6,5.9,6.1,8.8l10.2,19.4c1.6,2.3,1.7,5.3,0.2,7.7l-3.6,7.8c-0.4,0.6-0.6,1.3-0.5,2c0.2,0.5,1,0.8,1.7,0.7
					c0.2,0,1.2-0.3,5.2-3.4c0.7-0.5,1.6-0.4,2.1,0.3c0.5,0.7,0.4,1.6-0.3,2.1c-3.4,2.6-5.3,3.7-6.5,4
					C847.1,1321,846.8,1321,846.6,1321z"/>
				<path id="パス_8159" class="st2" d="M843,1319.4c-7.9-9.7-13.9-20.8-17.8-32.7c-0.3-1.1-0.6-2.2-1-3.3c-1.3-5.7-3.7-11.1-7-16
					l-21.5-35.3l2.6-1.6l21.5,35.3c3.4,5.1,5.9,10.8,7.3,16.8c0.3,1.1,0.6,2.2,0.9,3.2c3.7,11.5,9.6,22.3,17.2,31.7L843,1319.4z"/>
				<path id="パス_8160" class="st2" d="M798.2,1161.7l-2.5-1.7c3.4-5,4.6-11.1,5.8-17.5c0.4-1.9,0.8-3.9,1.2-5.9
					c1.9-8.1,5.1-15.9,8.1-23.4c3.4-8.4,7-17,8.6-25.9c0.2-0.8,0.3-1.7,0.4-2.5c1-5.7,1.9-11.6,6.3-15.6l2,2.2
					c-3.6,3.3-4.5,8.7-5.4,13.9c-0.1,0.9-0.3,1.7-0.4,2.6c-1.7,9.2-5.3,18-8.8,26.5c-3,7.4-6.2,15.1-8,22.9
					c-0.4,1.9-0.8,3.9-1.2,5.8C803.2,1149.5,801.9,1156.1,798.2,1161.7z"/>
				<path id="パス_8161" class="st2" d="M877.3,1159.5c-0.3,0-0.5-0.1-0.7-0.2c-7.8-4.3-12.7-12.1-16.4-19.2
					c-0.7-1.4-1.5-2.8-2.2-4.2c-2.9-5.8-6-11.8-10.4-16.5c-0.6-0.6-0.5-1.6,0.1-2.1s1.6-0.5,2.1,0.1l0,0c4.7,5.1,7.8,11.2,10.8,17.2
					c0.7,1.4,1.4,2.8,2.1,4.2c3.5,6.7,8.1,14,15.2,17.9c0.7,0.4,1,1.3,0.6,2C878.4,1159.2,877.8,1159.5,877.3,1159.5L877.3,1159.5z"
					/>
				<path id="パス_8162" class="st2" d="M831.5,1213.7c-3.6,0-7.2-0.2-10.8-0.7c-0.8-0.1-1.4-0.9-1.3-1.7c0.1-0.8,0.9-1.4,1.7-1.3
					c9.6,1.3,19.3,0.8,28.6-1.5c0.7-0.2,1.4-0.3,2.1-0.5c2.5-0.7,5-1.2,7.6-1.5c0.8-0.1,1.5,0.6,1.6,1.4c0.1,0.8-0.5,1.5-1.3,1.6
					c-2.4,0.3-4.8,0.7-7.1,1.4c-0.7,0.2-1.4,0.4-2.1,0.5C844.2,1213,837.8,1213.7,831.5,1213.7z"/>
				<path id="パス_8163" class="st2" d="M919.7,1218.8c-0.2,0-0.5-0.1-0.7-0.2c-7.9-4.2-17.2-4.8-25.6-1.6c-0.8,0.3-1.6,0-2-0.8
					s0-1.6,0.8-2c0,0,0.1,0,0.2-0.1c9.2-3.4,19.4-2.8,28,1.8c0.7,0.4,1,1.3,0.6,2C920.7,1218.5,920.2,1218.8,919.7,1218.8
					L919.7,1218.8z"/>
				<path id="パス_8164" class="st2" d="M925,1289.3c-4.8-1.1-9-3.9-11.8-8c-0.4-0.6-0.7-1.2-1.1-1.8c-1.7-2.8-3.3-5.4-5.7-7.1
					c-2.6-1.8-6-2.4-9.8-2.8c-0.3-0.1-0.6-0.1-0.9,0c0,0.1-0.1,0.2-0.1,0.2c-0.2,0.5-0.6,0.9-1,1.2c-0.5,0.3-2.2,1.2-4.4-1
					l-12.7-12.9l2.1-2.1l12.7,12.9c0.2,0.2,0.4,0.3,0.6,0.5v0c0.7-1.5,2.4-2.3,4-1.8c3.4,0.4,7.7,0.9,11.2,3.3c2.9,2,4.8,5.1,6.5,8
					c0.4,0.6,0.7,1.2,1.1,1.7c2.4,3.3,5.8,5.7,9.8,6.6L925,1289.3z"/>
				<path id="パス_8165" class="st2" d="M917.7,1308.3c-9.5-11.5-17.5-24.2-23.6-37.8l2.7-1.2c6,13.3,13.8,25.8,23.2,37
					L917.7,1308.3z"/>
				<path id="パス_8166" class="st2" d="M899.4,1168.3c-0.8,0-1.4-0.6-1.5-1.3c-0.4-1.9-1.4-3.7-2.8-5.1
					c-13.5-8.9-21.6-23.3-29.4-37.3c-2.4-4.2-4.8-8.6-7.4-12.7c-0.9-1.5-1.9-3-2.9-4.5c-1.8-2.8-3.7-5.7-5.4-8.7
					c-3.6-6.4-6.3-13.2-8.2-20.2c-3.6-1.2-6.6-3.6-8.4-6.9l-0.1-0.1c-0.1-0.2-0.2-0.4-0.4-0.6c-0.3,0-0.5,0-0.7,0.1
					c-8.1,1.3-16.4-0.7-22.9-5.7c-1.3,2-4.1,2.8-5,3c-3.2,0.7-6.4,0.8-9.6,0.4c-0.8-0.1-1.6-0.1-2.4-0.2c-0.8-0.1-1.5-0.8-1.4-1.6
					s0.8-1.5,1.6-1.4l0,0c0.9,0.1,1.7,0.1,2.5,0.2c2.9,0.4,5.8,0.3,8.7-0.3c1.2-0.2,2.3-0.8,3.2-1.8c0.1-0.2,0.2-0.4,0.1-0.7
					l-1.2-4.9l3.7,3.4c6.1,5.4,14.3,7.8,22.3,6.5c1.8-0.6,3.7,0.3,4.3,2l0.1,0.1c1.6,2.8,4.3,4.9,7.4,5.7l0.9,0.2l0.2,0.9
					c1.8,7.1,4.6,13.9,8.1,20.3c1.6,2.9,3.5,5.8,5.3,8.6c1,1.5,2,3,2.9,4.6c2.6,4.2,5,8.5,7.4,12.8c7.7,13.6,15.6,27.7,28.5,36.3
					c1.9,1.3,3.8,5,4.1,7.2c0.1,0.8-0.5,1.6-1.3,1.7l0,0C899.5,1168.3,899.4,1168.3,899.4,1168.3z"/>
				<path id="パス_8167" class="st2" d="M763.8,1044.6c-0.4,0-0.8-0.2-1.1-0.5c-2.6-2.8-3.8-6.5-4.5-9.8
					c-1.5-6.7-2.4-13.5-2.9-20.4c-0.1-0.8,0.5-1.6,1.4-1.6c0.8-0.1,1.5,0.5,1.6,1.3c0.5,6.7,1.5,13.4,2.9,20
					c0.7,2.9,1.7,6.2,3.8,8.4c0.6,0.6,0.5,1.6-0.1,2.1C764.5,1044.4,764.1,1044.6,763.8,1044.6L763.8,1044.6z"/>
				<path id="パス_8168" class="st2" d="M753.2,1043.4l-0.5-3c2.4-0.4,4.8-1.2,7-2.3l1.4,2.7
					C758.6,1042.1,755.9,1043,753.2,1043.4z"/>
				<path id="パス_8169" class="st2" d="M704.7,1043.1c-6.8-3.8-14.6-5.9-21.3-7.6l-0.3-0.1c-3.9-1-7.8-1.9-11.2-4.3
					c-2.7-2.1-5-4.7-6.8-7.6c-2.1-3.2-4.9-8.1-5.4-13.6c-0.5-5.6,1.5-11,5.5-13.9l1.4-1l0.8,1.5c0.8,1.4,1,1.4,2.7,1.4
					c0.5,0,1,0,1.5,0.1c2.8,0.1,5.6-0.3,8.3-1.1l11.1-2.7c2.8-0.6,5.5-1.4,8.2-2.5c3.2-1.6,6.1-3.5,8.8-5.7c2.2-1.8,4.6-3.4,7.1-4.9
					l1.5,2.6c-2.3,1.4-4.6,2.9-6.7,4.6c-5.1,4.5-11.4,7.5-18.1,8.7l-11.1,2.7c-3,0.9-6.1,1.3-9.2,1.2c-0.5,0-1-0.1-1.4-0.1
					c-1.7-0.1-2.9-0.2-4.1-1.5c-2.4,2.8-3.6,6.5-3.1,10.2c0.5,4.8,3,9.3,4.9,12.3c1.5,2.6,3.6,4.9,6,6.8c2.9,2.1,6.6,3,10.2,3.9
					l0.3,0.1c7,1.7,15,3.9,22.1,7.9L704.7,1043.1z"/>
				<path id="パス_8170" class="st2" d="M994.7,1119.3c-0.2,0-0.3,0-0.5-0.1c-13-4.6-21.5-15.7-30.5-28.7
					c-2.9-4.2-5.9-8.5-8.9-12.7c-7-10-14.2-20.3-21-30.6c-2.7-4.1-5.7-8.2-8.6-12.2c-4.7-6.2-9-12.7-13-19.3
					c-3.1-5.4-6.6-11.5-12-15.2c-3-1.9-6.2-3.3-9.6-4.1c-4-1.1-8.2-1.9-12.2-2.7l-93.1-18c-2.2-0.4-4.3-1-6.3-1.6
					c-2-0.6-3.8-1.1-5.7-1.5c-3.6-0.7-8.1,0.3-12,1.2c-0.6,0.1-1.2,0.3-1.8,0.4c-12,2.6-24,5.5-35.8,8.8l-0.2,0.1
					c-4.8,1.8-9.9,2.2-14.9,1.3c-4.2-0.7-8.6-0.5-12.7,0.7c-10.6,2.2-21.6,4.5-31.1,10c0.5,0.7,0.3,1.6-0.3,2.1
					c-0.2,0.2-0.5,0.3-0.8,0.3c-0.7,0-1.4-0.3-1.8-0.9c-0.5-0.7-0.6-1.5-0.3-2.3c0.4-0.8,1-1.4,1.7-1.8c9.9-5.8,21.2-8.1,32-10.3
					c2.9-0.7,5.8-1.1,8.8-1.2c1.6,0.1,3.3,0.2,4.9,0.4c1.7,0.3,3.3,0.4,5,0.4c3-0.2,5.9-0.7,8.7-1.7l0.2-0.1c11.9-3.3,24-6.3,36-8.9
					c0.6-0.1,1.1-0.3,1.7-0.4c4.2-0.9,9-2,13.3-1.2c2,0.4,4.1,1,6,1.6c2,0.6,4,1.2,6.1,1.6l93.1,18c4.1,0.8,8.3,1.6,12.4,2.8
					c3.7,0.9,7.2,2.4,10.5,4.5c6,4,9.7,10.5,12.9,16.2c3.9,6.6,8.2,12.9,12.9,19.1c2.9,4,5.9,8.1,8.7,12.3c6.8,10.3,14,20.6,21,30.5
					c3,4.2,5.9,8.5,8.9,12.7c8.7,12.5,16.9,23.3,29.1,27.6c0.8,0.3,1.2,1.1,0.9,1.9C995.9,1118.9,995.3,1119.3,994.7,1119.3
					L994.7,1119.3z"/>
				<path id="パス_8171" class="st2" d="M839.6,1066.3L839.6,1066.3c-0.9,0-1.5-0.7-1.5-1.6l0,0c0.3-5.5,2.2-10.8,5.6-15.1
					c0.5-0.7,1.4-0.8,2.1-0.3s0.8,1.4,0.3,2.1l0,0l0,0c-3,3.9-4.7,8.6-4.9,13.4C841,1065.6,840.4,1066.3,839.6,1066.3z"/>
				<path id="パス_8172" class="st2" d="M1606.7,1834.8c-0.4,0-0.8-0.2-1.1-0.5c-58.1-66-110.6-126.5-111.1-127.1
					c-0.4-0.5-43.8-52-59.6-69.8c-7.4-8.3-20.9-28.7-33.9-48.4c-14.3-21.6-30.4-46-35-48.5c-9.4-5.2-13.7-19.3-13.9-19.8l-0.1-0.3
					l0.1-0.3c1.4-8.4,0.6-10.6-1.8-16.7c-0.6-1.5-1.2-3.1-1.9-5.1c-4.4-12.4-9.1-21.9-14.7-29.8c-6.3-8.9-12.8-12.6-21.7-17.7
					l-1.9-1.1c-19.5-11.2-34.9-27.8-50.3-45.4c-29.2-33.3-61.8-72.8-78.6-119.5l-0.8-2.2c-3.8-10.6-6.8-19-13.6-28
					c-5.8-7.6-10.5-16.5-15-25c-1.6-2.9-3.2-6-4.8-8.8c-6.9-12.5-13-25.6-18.9-38.4c-6.9-14.9-14-30.4-22.5-44.7
					c-4.2-6.8-9.6-12.8-15.9-17.7c-8.1-6.1-18.6-8.2-28.7-10.2l-2.4-0.5c-11.6-2.3-23.4-5.7-31.2-14.1c-1.9-2.2-3.6-4.5-5.2-6.9
					c-0.9-1.3-1.8-2.6-2.7-3.8c-2.4-3-5-5.7-7.9-8.1c-0.6-0.6-1.3-1.1-1.9-1.7c-2.4-2.4-4.6-4.9-6.6-7.6c-0.9-1.1-1.8-2.3-2.7-3.4
					c-8.4-10.1-18.1-19.2-27.5-28l-46.2-43.3c-13.3-12.5-27.1-25.4-43.3-34c-6.2-3.3-17.4-1.2-24.7,2.5c-1.8,0.9-3.6,2-5.4,3.1
					c-0.9,0.6-1.8,1.1-2.7,1.6c-13.9,8.3-29.9,11.3-47.8,14.1c-0.8,0.1-1.6-0.4-1.7-1.2s0.4-1.6,1.2-1.7l0,0
					c17.6-2.8,33.2-5.7,46.7-13.7c0.9-0.5,1.7-1.1,2.6-1.6c1.8-1.1,3.7-2.3,5.6-3.3c6.6-3.3,19.4-6.7,27.4-2.5
					c16.5,8.8,30.4,21.8,43.9,34.4l0.1,0.1l46,43.1c9.5,8.9,19.3,18.1,27.8,28.3c1,1.2,1.9,2.3,2.8,3.5c1.9,2.6,4,5,6.3,7.3
					c0.6,0.6,1.3,1.2,1.9,1.7c3,2.6,5.8,5.4,8.3,8.6c1,1.3,1.9,2.6,2.8,4c1.5,2.3,3.1,4.5,4.9,6.5c7.6,8.2,19.2,11.1,29.5,13.2
					l2.4,0.5c10.5,2.1,21.3,4.3,29.9,10.7c6.6,5.2,12.3,11.5,16.7,18.6c8.6,14.5,15.8,30,22.7,45c5.8,12.7,11.9,25.8,18.8,38.2
					c1.6,2.9,3.2,6,4.8,8.9c4.5,8.4,9.1,17.1,14.7,24.6c7.1,9.4,10.2,18,14,28.8l0.8,2.2c16.6,46.3,49,85.5,78,118.6
					c15.2,17.3,30.5,33.8,49.5,44.7l1.9,1.1c8.9,5.1,15.9,9.1,22.7,18.5c5.8,8.1,10.6,17.8,15.1,30.5c0.7,1.9,1.3,3.6,1.9,5
					c2.4,6.2,3.5,9.1,2,18c0.7,2.1,4.8,13.5,12.4,17.8c4.8,2.7,16.8,20.5,36,49.5c12.9,19.6,26.3,39.8,33.6,48
					c15.8,17.8,59.2,69.3,59.7,69.8c0.5,0.6,53,61.1,111,127c0.5,0.6,0.5,1.6-0.1,2.1C1607.4,1834.6,1607.1,1834.8,1606.7,1834.8
					L1606.7,1834.8z"/>
				<path id="パス_8173" class="st2" d="M1014,1517.1L1014,1517.1c-12.1-0.3-25.9-1.6-37-8.9l-31.8-21c-5.4-3.6-11-7.2-17.2-9.2
					c-4.7-1.5-9.8-1.9-14.8-2.3c-2.2-0.2-4.5-0.4-6.8-0.7c-8.5-1.1-16.8-3.5-24.9-5.8c-3.7-1.1-7.5-2.2-11.3-3.1
					c-25-6.4-51.6-7.3-77.2-8.2c-15.5-0.5-31.6-1.1-47.1-2.8c-8.7-1-18-2.2-26.3-5.8c-5.2-2.2-10.2-5.5-15.1-8.8
					c-9.8-6.4-19-12.5-29.2-10.5c-0.8,0.2-1.6-0.3-1.8-1.1c-0.2-0.8,0.3-1.6,1.1-1.8c0,0,0,0,0,0c0,0,0,0,0.1,0
					c11.5-2.2,21.6,4.5,31.4,11c4.8,3.1,9.7,6.4,14.7,8.5c8,3.4,16.6,4.6,25.5,5.6c15.4,1.7,31.4,2.3,46.9,2.8
					c25.8,0.9,52.5,1.8,77.9,8.3c3.8,1,7.7,2.1,11.4,3.2c7.9,2.3,16.1,4.7,24.4,5.7c2.2,0.3,4.4,0.5,6.6,0.7
					c5.1,0.4,10.4,0.9,15.4,2.4c6.6,2.1,12.4,5.8,17.9,9.5l31.8,21c10.5,6.9,23.8,8.2,35.4,8.5c0.8,0,1.5,0.7,1.5,1.5
					C1015.5,1516.4,1014.8,1517.1,1014,1517.1L1014,1517.1z"/>
				<path id="パス_8174" class="st2" d="M1233.8,1834.8c-0.6,0-1.1-0.3-1.3-0.8c-31.1-62.3-59.7-116.5-60-117
					c-0.2-0.3-16.1-32.1-23.9-43.9c-0.7-1-1.5-2.3-2.6-3.9c-12.3-18.5-49.6-74.7-74.3-105c-26.4-32.3-65-47.4-65.4-47.6
					c-0.8-0.3-1.2-1.2-0.9-1.9c0.3-0.8,1.2-1.2,1.9-0.9c0.4,0.2,39.7,15.5,66.6,48.4c24.8,30.4,62.2,86.7,74.5,105.2
					c1.1,1.6,2,2.9,2.6,3.9c8,11.9,23.4,42.9,24.1,44.2c0.3,0.5,28.9,54.7,60,117c0.4,0.7,0.1,1.6-0.7,2
					C1234.3,1834.7,1234.1,1834.8,1233.8,1834.8z"/>
				<g id="グループ_1734">
					<path id="パス_8175" class="st2" d="M796.9,1171.6c0,0-0.4-56.2-1.7-92.6s-23.7-38.5-42.7-38.5H157.9
						c-23.7,0-38.9,13.5-38.9,47.8v218.6c0,34.3,15.2,47.8,38.9,47.8h594.6c19,0,41.4-2.1,42.7-38.5s1.7-92.6,1.7-92.6L796.9,1171.6
						z"/>
				</g>
			</g>
		</g>
	</g>
</g>
</svg>
