<svg xmlns="http://www.w3.org/2000/svg" xmlns:xlink="http://www.w3.org/1999/xlink" width="1" height="900" viewBox="0 0 1 900" preserveAspectRatio="none">
  <defs>
    <linearGradient id="linear-gradient" x1="0.5" y1="0.956" x2="0.5" y2="0.607" gradientUnits="objectBoundingBox">
      <stop offset="0.001" stop-color="#1b83b9"/>
      <stop offset="1" stop-color="#002063"/>
    </linearGradient>
  </defs>
  <rect id="長方形_399" data-name="長方形 399" width="1" height="900" fill="url(#linear-gradient)"/>
</svg>
